^C:\USERS\HANS\DOCUMENTS\VISUAL STUDIO 2015\PROJECTS\GLTUTORIAL2\GLTUTORIAL2\MAIN.CPP
C:\USERS\HANS\DOCUMENTS\VISUAL STUDIO 2015\PROJECTS\GLTUTORIAL2\GLTUTORIAL2\DEBUG\VC140.PDB
C:\USERS\HANS\DOCUMENTS\VISUAL STUDIO 2015\PROJECTS\GLTUTORIAL2\GLTUTORIAL2\DEBUG\VC140.IDB
C:\USERS\HANS\DOCUMENTS\VISUAL STUDIO 2015\PROJECTS\GLTUTORIAL2\GLTUTORIAL2\DEBUG\MAIN.OBJ
^C:\USERS\HANS\DOCUMENTS\VISUAL STUDIO 2015\PROJECTS\GLTUTORIAL2\GLTUTORIAL2\SHADER.CPP
C:\USERS\HANS\DOCUMENTS\VISUAL STUDIO 2015\PROJECTS\GLTUTORIAL2\GLTUTORIAL2\DEBUG\VC140.PDB
C:\USERS\HANS\DOCUMENTS\VISUAL STUDIO 2015\PROJECTS\GLTUTORIAL2\GLTUTORIAL2\DEBUG\VC140.IDB
C:\USERS\HANS\DOCUMENTS\VISUAL STUDIO 2015\PROJECTS\GLTUTORIAL2\GLTUTORIAL2\DEBUG\SHADER.OBJ
^C:\USERS\HANS\DOCUMENTS\VISUAL STUDIO 2015\PROJECTS\GLTUTORIAL2\GLTUTORIAL2\MAIN.CPP|C:\USERS\HANS\DOCUMENTS\VISUAL STUDIO 2015\PROJECTS\GLTUTORIAL2\GLTUTORIAL2\SHADER.CPP
C:\USERS\HANS\DOCUMENTS\VISUAL STUDIO 2015\PROJECTS\GLTUTORIAL2\GLTUTORIAL2\DEBUG\VC140.PDB
C:\USERS\HANS\DOCUMENTS\VISUAL STUDIO 2015\PROJECTS\GLTUTORIAL2\GLTUTORIAL2\DEBUG\VC140.IDB
C:\USERS\HANS\DOCUMENTS\VISUAL STUDIO 2015\PROJECTS\GLTUTORIAL2\GLTUTORIAL2\DEBUG\MAIN.OBJ
C:\USERS\HANS\DOCUMENTS\VISUAL STUDIO 2015\PROJECTS\GLTUTORIAL2\GLTUTORIAL2\DEBUG\SHADER.OBJ
