^C:\USERS\HANS\DOCUMENTS\VISUAL STUDIO 2015\PROJECTS\GLTUTORIAL2\GLTUTORIAL2\DEBUG\MAIN.OBJ|C:\USERS\HANS\DOCUMENTS\VISUAL STUDIO 2015\PROJECTS\GLTUTORIAL2\GLTUTORIAL2\DEBUG\SHADER.OBJ
C:\PROGRAM FILES (X86)\MICROSOFT VISUAL STUDIO 14.0\VC\BIN\VCTIP.EXE
C:\WINDOWS\SYSTEM32\TZRES.DLL
C:\WINDOWS\GLOBALIZATION\SORTING\SORTDEFAULT.NLS
C:\USERS\HANS\DOCUMENTS\VISUAL STUDIO 2015\PROJECTS\GLTUTORIAL2\PACKAGES\SDL2.2.0.5\BUILD\NATIVE\LIB\WIN32\DYNAMIC\SDL2MAIN.LIB
C:\USERS\HANS\DOCUMENTS\VISUAL STUDIO 2015\PROJECTS\GLTUTORIAL2\PACKAGES\SDL2.2.0.5\BUILD\NATIVE\LIB\WIN32\DYNAMIC\SDL2.LIB
C:\USERS\HANS\DOCUMENTS\VISUAL STUDIO 2015\PROJECTS\GLTUTORIAL2\GLTUTORIAL2\ANGLE\LIB\DEBUG_WIN32\LIBEGL.LIB
C:\USERS\HANS\DOCUMENTS\VISUAL STUDIO 2015\PROJECTS\GLTUTORIAL2\GLTUTORIAL2\ANGLE\LIB\DEBUG_WIN32\LIBGLESV2.LIB
C:\PROGRAM FILES (X86)\WINDOWS KITS\8.1\LIB\WINV6.3\UM\X86\KERNEL32.LIB
C:\PROGRAM FILES (X86)\WINDOWS KITS\8.1\LIB\WINV6.3\UM\X86\USER32.LIB
C:\PROGRAM FILES (X86)\WINDOWS KITS\8.1\LIB\WINV6.3\UM\X86\GDI32.LIB
C:\PROGRAM FILES (X86)\WINDOWS KITS\8.1\LIB\WINV6.3\UM\X86\WINSPOOL.LIB
C:\PROGRAM FILES (X86)\WINDOWS KITS\8.1\LIB\WINV6.3\UM\X86\COMDLG32.LIB
C:\PROGRAM FILES (X86)\WINDOWS KITS\8.1\LIB\WINV6.3\UM\X86\ADVAPI32.LIB
C:\PROGRAM FILES (X86)\WINDOWS KITS\8.1\LIB\WINV6.3\UM\X86\SHELL32.LIB
C:\PROGRAM FILES (X86)\WINDOWS KITS\8.1\LIB\WINV6.3\UM\X86\OLE32.LIB
C:\PROGRAM FILES (X86)\WINDOWS KITS\8.1\LIB\WINV6.3\UM\X86\OLEAUT32.LIB
C:\PROGRAM FILES (X86)\WINDOWS KITS\8.1\LIB\WINV6.3\UM\X86\UUID.LIB
C:\PROGRAM FILES (X86)\WINDOWS KITS\8.1\LIB\WINV6.3\UM\X86\ODBC32.LIB
C:\PROGRAM FILES (X86)\WINDOWS KITS\8.1\LIB\WINV6.3\UM\X86\ODBCCP32.LIB
C:\USERS\HANS\DOCUMENTS\VISUAL STUDIO 2015\PROJECTS\GLTUTORIAL2\GLTUTORIAL2\DEBUG\MAIN.OBJ
C:\USERS\HANS\DOCUMENTS\VISUAL STUDIO 2015\PROJECTS\GLTUTORIAL2\GLTUTORIAL2\DEBUG\SHADER.OBJ
C:\PROGRAM FILES (X86)\MICROSOFT VISUAL STUDIO 14.0\VC\LIB\MSVCPRTD.LIB
C:\PROGRAM FILES (X86)\MICROSOFT VISUAL STUDIO 14.0\VC\LIB\MSVCRTD.LIB
C:\PROGRAM FILES (X86)\MICROSOFT VISUAL STUDIO 14.0\VC\LIB\OLDNAMES.LIB
C:\PROGRAM FILES (X86)\MICROSOFT VISUAL STUDIO 14.0\VC\LIB\VCRUNTIMED.LIB
C:\PROGRAM FILES (X86)\WINDOWS KITS\10\LIB\10.0.10240.0\UCRT\X86\UCRTD.LIB
