^C:\USERS\HANS\DROPBOX\DOCUMENTS\VISUAL STUDIO 2015\PROJECTS\GLTUTORIAL5\GLTUTORIAL5\TEXTURE.CPP
C:\USERS\HANS\DROPBOX\DOCUMENTS\VISUAL STUDIO 2015\PROJECTS\GLTUTORIAL5\GLTUTORIAL5\TEXTURE.H
C:\USERS\HANS\DROPBOX\DOCUMENTS\VISUAL STUDIO 2015\PROJECTS\GLTUTORIAL5\GLTUTORIAL5\ANGLE\INCLUDE\GLES3\GL3.H
C:\USERS\HANS\DROPBOX\DOCUMENTS\VISUAL STUDIO 2015\PROJECTS\GLTUTORIAL5\GLTUTORIAL5\ANGLE\INCLUDE\GLES3\GL3PLATFORM.H
C:\USERS\HANS\DROPBOX\DOCUMENTS\VISUAL STUDIO 2015\PROJECTS\GLTUTORIAL5\GLTUTORIAL5\ANGLE\INCLUDE\KHR\KHRPLATFORM.H
C:\USERS\HANS\DROPBOX\DOCUMENTS\VISUAL STUDIO 2015\PROJECTS\GLTUTORIAL5\PACKAGES\SDL2.2.0.5\BUILD\NATIVE\INCLUDE\SDL.H
C:\USERS\HANS\DROPBOX\DOCUMENTS\VISUAL STUDIO 2015\PROJECTS\GLTUTORIAL5\PACKAGES\SDL2.2.0.5\BUILD\NATIVE\INCLUDE\SDL_MAIN.H
C:\USERS\HANS\DROPBOX\DOCUMENTS\VISUAL STUDIO 2015\PROJECTS\GLTUTORIAL5\PACKAGES\SDL2.2.0.5\BUILD\NATIVE\INCLUDE\SDL_STDINC.H
C:\USERS\HANS\DROPBOX\DOCUMENTS\VISUAL STUDIO 2015\PROJECTS\GLTUTORIAL5\PACKAGES\SDL2.2.0.5\BUILD\NATIVE\INCLUDE\SDL_CONFIG.H
C:\USERS\HANS\DROPBOX\DOCUMENTS\VISUAL STUDIO 2015\PROJECTS\GLTUTORIAL5\PACKAGES\SDL2.2.0.5\BUILD\NATIVE\INCLUDE\SDL_PLATFORM.H
C:\PROGRAM FILES (X86)\WINDOWS KITS\8.1\INCLUDE\SHARED\WINAPIFAMILY.H
C:\USERS\HANS\DROPBOX\DOCUMENTS\VISUAL STUDIO 2015\PROJECTS\GLTUTORIAL5\PACKAGES\SDL2.2.0.5\BUILD\NATIVE\INCLUDE\BEGIN_CODE.H
C:\USERS\HANS\DROPBOX\DOCUMENTS\VISUAL STUDIO 2015\PROJECTS\GLTUTORIAL5\PACKAGES\SDL2.2.0.5\BUILD\NATIVE\INCLUDE\CLOSE_CODE.H
C:\PROGRAM FILES (X86)\WINDOWS KITS\10\INCLUDE\10.0.10240.0\UCRT\STDDEF.H
C:\PROGRAM FILES (X86)\WINDOWS KITS\10\INCLUDE\10.0.10240.0\UCRT\CORECRT.H
C:\PROGRAM FILES (X86)\MICROSOFT VISUAL STUDIO 14.0\VC\INCLUDE\VCRUNTIME.H
C:\PROGRAM FILES (X86)\MICROSOFT VISUAL STUDIO 14.0\VC\INCLUDE\SAL.H
C:\PROGRAM FILES (X86)\MICROSOFT VISUAL STUDIO 14.0\VC\INCLUDE\CONCURRENCYSAL.H
C:\PROGRAM FILES (X86)\MICROSOFT VISUAL STUDIO 14.0\VC\INCLUDE\VADEFS.H
C:\PROGRAM FILES (X86)\MICROSOFT VISUAL STUDIO 14.0\VC\INCLUDE\STDARG.H
C:\USERS\HANS\DROPBOX\DOCUMENTS\VISUAL STUDIO 2015\PROJECTS\GLTUTORIAL5\PACKAGES\SDL2.2.0.5\BUILD\NATIVE\INCLUDE\SDL_ASSERT.H
C:\USERS\HANS\DROPBOX\DOCUMENTS\VISUAL STUDIO 2015\PROJECTS\GLTUTORIAL5\PACKAGES\SDL2.2.0.5\BUILD\NATIVE\INCLUDE\SDL_ATOMIC.H
C:\USERS\HANS\DROPBOX\DOCUMENTS\VISUAL STUDIO 2015\PROJECTS\GLTUTORIAL5\PACKAGES\SDL2.2.0.5\BUILD\NATIVE\INCLUDE\SDL_AUDIO.H
C:\USERS\HANS\DROPBOX\DOCUMENTS\VISUAL STUDIO 2015\PROJECTS\GLTUTORIAL5\PACKAGES\SDL2.2.0.5\BUILD\NATIVE\INCLUDE\SDL_ERROR.H
C:\USERS\HANS\DROPBOX\DOCUMENTS\VISUAL STUDIO 2015\PROJECTS\GLTUTORIAL5\PACKAGES\SDL2.2.0.5\BUILD\NATIVE\INCLUDE\SDL_ENDIAN.H
C:\USERS\HANS\DROPBOX\DOCUMENTS\VISUAL STUDIO 2015\PROJECTS\GLTUTORIAL5\PACKAGES\SDL2.2.0.5\BUILD\NATIVE\INCLUDE\SDL_MUTEX.H
C:\USERS\HANS\DROPBOX\DOCUMENTS\VISUAL STUDIO 2015\PROJECTS\GLTUTORIAL5\PACKAGES\SDL2.2.0.5\BUILD\NATIVE\INCLUDE\SDL_THREAD.H
C:\PROGRAM FILES (X86)\WINDOWS KITS\10\INCLUDE\10.0.10240.0\UCRT\PROCESS.H
C:\PROGRAM FILES (X86)\WINDOWS KITS\10\INCLUDE\10.0.10240.0\UCRT\CORECRT_STARTUP.H
C:\PROGRAM FILES (X86)\WINDOWS KITS\10\INCLUDE\10.0.10240.0\UCRT\MATH.H
C:\PROGRAM FILES (X86)\MICROSOFT VISUAL STUDIO 14.0\VC\INCLUDE\VCRUNTIME_STARTUP.H
C:\PROGRAM FILES (X86)\WINDOWS KITS\10\INCLUDE\10.0.10240.0\UCRT\CORECRT_WPROCESS.H
C:\USERS\HANS\DROPBOX\DOCUMENTS\VISUAL STUDIO 2015\PROJECTS\GLTUTORIAL5\PACKAGES\SDL2.2.0.5\BUILD\NATIVE\INCLUDE\SDL_RWOPS.H
C:\USERS\HANS\DROPBOX\DOCUMENTS\VISUAL STUDIO 2015\PROJECTS\GLTUTORIAL5\PACKAGES\SDL2.2.0.5\BUILD\NATIVE\INCLUDE\SDL_CLIPBOARD.H
C:\USERS\HANS\DROPBOX\DOCUMENTS\VISUAL STUDIO 2015\PROJECTS\GLTUTORIAL5\PACKAGES\SDL2.2.0.5\BUILD\NATIVE\INCLUDE\SDL_CPUINFO.H
C:\PROGRAM FILES (X86)\MICROSOFT VISUAL STUDIO 14.0\VC\INCLUDE\INTRIN.H
C:\PROGRAM FILES (X86)\MICROSOFT VISUAL STUDIO 14.0\VC\INCLUDE\SETJMP.H
C:\PROGRAM FILES (X86)\MICROSOFT VISUAL STUDIO 14.0\VC\INCLUDE\IMMINTRIN.H
C:\PROGRAM FILES (X86)\MICROSOFT VISUAL STUDIO 14.0\VC\INCLUDE\WMMINTRIN.H
C:\PROGRAM FILES (X86)\MICROSOFT VISUAL STUDIO 14.0\VC\INCLUDE\NMMINTRIN.H
C:\PROGRAM FILES (X86)\MICROSOFT VISUAL STUDIO 14.0\VC\INCLUDE\SMMINTRIN.H
C:\PROGRAM FILES (X86)\MICROSOFT VISUAL STUDIO 14.0\VC\INCLUDE\TMMINTRIN.H
C:\PROGRAM FILES (X86)\MICROSOFT VISUAL STUDIO 14.0\VC\INCLUDE\PMMINTRIN.H
C:\PROGRAM FILES (X86)\MICROSOFT VISUAL STUDIO 14.0\VC\INCLUDE\EMMINTRIN.H
C:\PROGRAM FILES (X86)\MICROSOFT VISUAL STUDIO 14.0\VC\INCLUDE\XMMINTRIN.H
C:\PROGRAM FILES (X86)\MICROSOFT VISUAL STUDIO 14.0\VC\INCLUDE\MMINTRIN.H
C:\PROGRAM FILES (X86)\WINDOWS KITS\10\INCLUDE\10.0.10240.0\UCRT\MALLOC.H
C:\PROGRAM FILES (X86)\WINDOWS KITS\10\INCLUDE\10.0.10240.0\UCRT\CORECRT_MALLOC.H
C:\PROGRAM FILES (X86)\MICROSOFT VISUAL STUDIO 14.0\VC\INCLUDE\AMMINTRIN.H
C:\PROGRAM FILES (X86)\MICROSOFT VISUAL STUDIO 14.0\VC\INCLUDE\MM3DNOW.H
C:\USERS\HANS\DROPBOX\DOCUMENTS\VISUAL STUDIO 2015\PROJECTS\GLTUTORIAL5\PACKAGES\SDL2.2.0.5\BUILD\NATIVE\INCLUDE\SDL_EVENTS.H
C:\USERS\HANS\DROPBOX\DOCUMENTS\VISUAL STUDIO 2015\PROJECTS\GLTUTORIAL5\PACKAGES\SDL2.2.0.5\BUILD\NATIVE\INCLUDE\SDL_VIDEO.H
C:\USERS\HANS\DROPBOX\DOCUMENTS\VISUAL STUDIO 2015\PROJECTS\GLTUTORIAL5\PACKAGES\SDL2.2.0.5\BUILD\NATIVE\INCLUDE\SDL_PIXELS.H
C:\USERS\HANS\DROPBOX\DOCUMENTS\VISUAL STUDIO 2015\PROJECTS\GLTUTORIAL5\PACKAGES\SDL2.2.0.5\BUILD\NATIVE\INCLUDE\SDL_RECT.H
C:\USERS\HANS\DROPBOX\DOCUMENTS\VISUAL STUDIO 2015\PROJECTS\GLTUTORIAL5\PACKAGES\SDL2.2.0.5\BUILD\NATIVE\INCLUDE\SDL_SURFACE.H
C:\USERS\HANS\DROPBOX\DOCUMENTS\VISUAL STUDIO 2015\PROJECTS\GLTUTORIAL5\PACKAGES\SDL2.2.0.5\BUILD\NATIVE\INCLUDE\SDL_BLENDMODE.H
C:\USERS\HANS\DROPBOX\DOCUMENTS\VISUAL STUDIO 2015\PROJECTS\GLTUTORIAL5\PACKAGES\SDL2.2.0.5\BUILD\NATIVE\INCLUDE\SDL_KEYBOARD.H
C:\USERS\HANS\DROPBOX\DOCUMENTS\VISUAL STUDIO 2015\PROJECTS\GLTUTORIAL5\PACKAGES\SDL2.2.0.5\BUILD\NATIVE\INCLUDE\SDL_KEYCODE.H
C:\USERS\HANS\DROPBOX\DOCUMENTS\VISUAL STUDIO 2015\PROJECTS\GLTUTORIAL5\PACKAGES\SDL2.2.0.5\BUILD\NATIVE\INCLUDE\SDL_SCANCODE.H
C:\USERS\HANS\DROPBOX\DOCUMENTS\VISUAL STUDIO 2015\PROJECTS\GLTUTORIAL5\PACKAGES\SDL2.2.0.5\BUILD\NATIVE\INCLUDE\SDL_MOUSE.H
C:\USERS\HANS\DROPBOX\DOCUMENTS\VISUAL STUDIO 2015\PROJECTS\GLTUTORIAL5\PACKAGES\SDL2.2.0.5\BUILD\NATIVE\INCLUDE\SDL_JOYSTICK.H
C:\USERS\HANS\DROPBOX\DOCUMENTS\VISUAL STUDIO 2015\PROJECTS\GLTUTORIAL5\PACKAGES\SDL2.2.0.5\BUILD\NATIVE\INCLUDE\SDL_GAMECONTROLLER.H
C:\USERS\HANS\DROPBOX\DOCUMENTS\VISUAL STUDIO 2015\PROJECTS\GLTUTORIAL5\PACKAGES\SDL2.2.0.5\BUILD\NATIVE\INCLUDE\SDL_QUIT.H
C:\USERS\HANS\DROPBOX\DOCUMENTS\VISUAL STUDIO 2015\PROJECTS\GLTUTORIAL5\PACKAGES\SDL2.2.0.5\BUILD\NATIVE\INCLUDE\SDL_GESTURE.H
C:\USERS\HANS\DROPBOX\DOCUMENTS\VISUAL STUDIO 2015\PROJECTS\GLTUTORIAL5\PACKAGES\SDL2.2.0.5\BUILD\NATIVE\INCLUDE\SDL_TOUCH.H
C:\USERS\HANS\DROPBOX\DOCUMENTS\VISUAL STUDIO 2015\PROJECTS\GLTUTORIAL5\PACKAGES\SDL2.2.0.5\BUILD\NATIVE\INCLUDE\SDL_FILESYSTEM.H
C:\USERS\HANS\DROPBOX\DOCUMENTS\VISUAL STUDIO 2015\PROJECTS\GLTUTORIAL5\PACKAGES\SDL2.2.0.5\BUILD\NATIVE\INCLUDE\SDL_HAPTIC.H
C:\USERS\HANS\DROPBOX\DOCUMENTS\VISUAL STUDIO 2015\PROJECTS\GLTUTORIAL5\PACKAGES\SDL2.2.0.5\BUILD\NATIVE\INCLUDE\SDL_HINTS.H
C:\USERS\HANS\DROPBOX\DOCUMENTS\VISUAL STUDIO 2015\PROJECTS\GLTUTORIAL5\PACKAGES\SDL2.2.0.5\BUILD\NATIVE\INCLUDE\SDL_LOADSO.H
C:\USERS\HANS\DROPBOX\DOCUMENTS\VISUAL STUDIO 2015\PROJECTS\GLTUTORIAL5\PACKAGES\SDL2.2.0.5\BUILD\NATIVE\INCLUDE\SDL_LOG.H
C:\USERS\HANS\DROPBOX\DOCUMENTS\VISUAL STUDIO 2015\PROJECTS\GLTUTORIAL5\PACKAGES\SDL2.2.0.5\BUILD\NATIVE\INCLUDE\SDL_MESSAGEBOX.H
C:\USERS\HANS\DROPBOX\DOCUMENTS\VISUAL STUDIO 2015\PROJECTS\GLTUTORIAL5\PACKAGES\SDL2.2.0.5\BUILD\NATIVE\INCLUDE\SDL_POWER.H
C:\USERS\HANS\DROPBOX\DOCUMENTS\VISUAL STUDIO 2015\PROJECTS\GLTUTORIAL5\PACKAGES\SDL2.2.0.5\BUILD\NATIVE\INCLUDE\SDL_RENDER.H
C:\USERS\HANS\DROPBOX\DOCUMENTS\VISUAL STUDIO 2015\PROJECTS\GLTUTORIAL5\PACKAGES\SDL2.2.0.5\BUILD\NATIVE\INCLUDE\SDL_SYSTEM.H
C:\USERS\HANS\DROPBOX\DOCUMENTS\VISUAL STUDIO 2015\PROJECTS\GLTUTORIAL5\PACKAGES\SDL2.2.0.5\BUILD\NATIVE\INCLUDE\SDL_TIMER.H
C:\USERS\HANS\DROPBOX\DOCUMENTS\VISUAL STUDIO 2015\PROJECTS\GLTUTORIAL5\PACKAGES\SDL2.2.0.5\BUILD\NATIVE\INCLUDE\SDL_VERSION.H
C:\PROGRAM FILES (X86)\MICROSOFT VISUAL STUDIO 14.0\VC\BIN\VCTIP.EXE
C:\USERS\HANS\DROPBOX\DOCUMENTS\VISUAL STUDIO 2015\PROJECTS\GLTUTORIAL5\PACKAGES\SDL2.V140.2.0.4\BUILD\NATIVE\INCLUDE\SDL.H
C:\USERS\HANS\DROPBOX\DOCUMENTS\VISUAL STUDIO 2015\PROJECTS\GLTUTORIAL5\PACKAGES\SDL2.V140.2.0.4\BUILD\NATIVE\INCLUDE\SDL_MAIN.H
C:\USERS\HANS\DROPBOX\DOCUMENTS\VISUAL STUDIO 2015\PROJECTS\GLTUTORIAL5\PACKAGES\SDL2.V140.2.0.4\BUILD\NATIVE\INCLUDE\SDL_STDINC.H
C:\USERS\HANS\DROPBOX\DOCUMENTS\VISUAL STUDIO 2015\PROJECTS\GLTUTORIAL5\PACKAGES\SDL2.V140.2.0.4\BUILD\NATIVE\INCLUDE\SDL_CONFIG.H
C:\USERS\HANS\DROPBOX\DOCUMENTS\VISUAL STUDIO 2015\PROJECTS\GLTUTORIAL5\PACKAGES\SDL2.V140.2.0.4\BUILD\NATIVE\INCLUDE\SDL_PLATFORM.H
C:\USERS\HANS\DROPBOX\DOCUMENTS\VISUAL STUDIO 2015\PROJECTS\GLTUTORIAL5\PACKAGES\SDL2.V140.2.0.4\BUILD\NATIVE\INCLUDE\BEGIN_CODE.H
C:\USERS\HANS\DROPBOX\DOCUMENTS\VISUAL STUDIO 2015\PROJECTS\GLTUTORIAL5\PACKAGES\SDL2.V140.2.0.4\BUILD\NATIVE\INCLUDE\CLOSE_CODE.H
C:\USERS\HANS\DROPBOX\DOCUMENTS\VISUAL STUDIO 2015\PROJECTS\GLTUTORIAL5\PACKAGES\SDL2.V140.2.0.4\BUILD\NATIVE\INCLUDE\SDL_CONFIG_WINDOWS.H
C:\USERS\HANS\DROPBOX\DOCUMENTS\VISUAL STUDIO 2015\PROJECTS\GLTUTORIAL5\PACKAGES\SDL2.V140.2.0.4\BUILD\NATIVE\INCLUDE\SDL_ASSERT.H
C:\USERS\HANS\DROPBOX\DOCUMENTS\VISUAL STUDIO 2015\PROJECTS\GLTUTORIAL5\PACKAGES\SDL2.V140.2.0.4\BUILD\NATIVE\INCLUDE\SDL_ATOMIC.H
C:\USERS\HANS\DROPBOX\DOCUMENTS\VISUAL STUDIO 2015\PROJECTS\GLTUTORIAL5\PACKAGES\SDL2.V140.2.0.4\BUILD\NATIVE\INCLUDE\SDL_AUDIO.H
C:\USERS\HANS\DROPBOX\DOCUMENTS\VISUAL STUDIO 2015\PROJECTS\GLTUTORIAL5\PACKAGES\SDL2.V140.2.0.4\BUILD\NATIVE\INCLUDE\SDL_ERROR.H
C:\USERS\HANS\DROPBOX\DOCUMENTS\VISUAL STUDIO 2015\PROJECTS\GLTUTORIAL5\PACKAGES\SDL2.V140.2.0.4\BUILD\NATIVE\INCLUDE\SDL_ENDIAN.H
C:\USERS\HANS\DROPBOX\DOCUMENTS\VISUAL STUDIO 2015\PROJECTS\GLTUTORIAL5\PACKAGES\SDL2.V140.2.0.4\BUILD\NATIVE\INCLUDE\SDL_MUTEX.H
C:\USERS\HANS\DROPBOX\DOCUMENTS\VISUAL STUDIO 2015\PROJECTS\GLTUTORIAL5\PACKAGES\SDL2.V140.2.0.4\BUILD\NATIVE\INCLUDE\SDL_THREAD.H
C:\USERS\HANS\DROPBOX\DOCUMENTS\VISUAL STUDIO 2015\PROJECTS\GLTUTORIAL5\PACKAGES\SDL2.V140.2.0.4\BUILD\NATIVE\INCLUDE\SDL_RWOPS.H
C:\USERS\HANS\DROPBOX\DOCUMENTS\VISUAL STUDIO 2015\PROJECTS\GLTUTORIAL5\PACKAGES\SDL2.V140.2.0.4\BUILD\NATIVE\INCLUDE\SDL_CLIPBOARD.H
C:\USERS\HANS\DROPBOX\DOCUMENTS\VISUAL STUDIO 2015\PROJECTS\GLTUTORIAL5\PACKAGES\SDL2.V140.2.0.4\BUILD\NATIVE\INCLUDE\SDL_CPUINFO.H
C:\USERS\HANS\DROPBOX\DOCUMENTS\VISUAL STUDIO 2015\PROJECTS\GLTUTORIAL5\PACKAGES\SDL2.V140.2.0.4\BUILD\NATIVE\INCLUDE\SDL_EVENTS.H
C:\USERS\HANS\DROPBOX\DOCUMENTS\VISUAL STUDIO 2015\PROJECTS\GLTUTORIAL5\PACKAGES\SDL2.V140.2.0.4\BUILD\NATIVE\INCLUDE\SDL_VIDEO.H
C:\USERS\HANS\DROPBOX\DOCUMENTS\VISUAL STUDIO 2015\PROJECTS\GLTUTORIAL5\PACKAGES\SDL2.V140.2.0.4\BUILD\NATIVE\INCLUDE\SDL_PIXELS.H
C:\USERS\HANS\DROPBOX\DOCUMENTS\VISUAL STUDIO 2015\PROJECTS\GLTUTORIAL5\PACKAGES\SDL2.V140.2.0.4\BUILD\NATIVE\INCLUDE\SDL_RECT.H
C:\USERS\HANS\DROPBOX\DOCUMENTS\VISUAL STUDIO 2015\PROJECTS\GLTUTORIAL5\PACKAGES\SDL2.V140.2.0.4\BUILD\NATIVE\INCLUDE\SDL_SURFACE.H
C:\USERS\HANS\DROPBOX\DOCUMENTS\VISUAL STUDIO 2015\PROJECTS\GLTUTORIAL5\PACKAGES\SDL2.V140.2.0.4\BUILD\NATIVE\INCLUDE\SDL_BLENDMODE.H
C:\USERS\HANS\DROPBOX\DOCUMENTS\VISUAL STUDIO 2015\PROJECTS\GLTUTORIAL5\PACKAGES\SDL2.V140.2.0.4\BUILD\NATIVE\INCLUDE\SDL_KEYBOARD.H
C:\USERS\HANS\DROPBOX\DOCUMENTS\VISUAL STUDIO 2015\PROJECTS\GLTUTORIAL5\PACKAGES\SDL2.V140.2.0.4\BUILD\NATIVE\INCLUDE\SDL_KEYCODE.H
C:\USERS\HANS\DROPBOX\DOCUMENTS\VISUAL STUDIO 2015\PROJECTS\GLTUTORIAL5\PACKAGES\SDL2.V140.2.0.4\BUILD\NATIVE\INCLUDE\SDL_SCANCODE.H
C:\USERS\HANS\DROPBOX\DOCUMENTS\VISUAL STUDIO 2015\PROJECTS\GLTUTORIAL5\PACKAGES\SDL2.V140.2.0.4\BUILD\NATIVE\INCLUDE\SDL_MOUSE.H
C:\USERS\HANS\DROPBOX\DOCUMENTS\VISUAL STUDIO 2015\PROJECTS\GLTUTORIAL5\PACKAGES\SDL2.V140.2.0.4\BUILD\NATIVE\INCLUDE\SDL_JOYSTICK.H
C:\USERS\HANS\DROPBOX\DOCUMENTS\VISUAL STUDIO 2015\PROJECTS\GLTUTORIAL5\PACKAGES\SDL2.V140.2.0.4\BUILD\NATIVE\INCLUDE\SDL_GAMECONTROLLER.H
C:\USERS\HANS\DROPBOX\DOCUMENTS\VISUAL STUDIO 2015\PROJECTS\GLTUTORIAL5\PACKAGES\SDL2.V140.2.0.4\BUILD\NATIVE\INCLUDE\SDL_QUIT.H
C:\USERS\HANS\DROPBOX\DOCUMENTS\VISUAL STUDIO 2015\PROJECTS\GLTUTORIAL5\PACKAGES\SDL2.V140.2.0.4\BUILD\NATIVE\INCLUDE\SDL_GESTURE.H
C:\USERS\HANS\DROPBOX\DOCUMENTS\VISUAL STUDIO 2015\PROJECTS\GLTUTORIAL5\PACKAGES\SDL2.V140.2.0.4\BUILD\NATIVE\INCLUDE\SDL_TOUCH.H
C:\USERS\HANS\DROPBOX\DOCUMENTS\VISUAL STUDIO 2015\PROJECTS\GLTUTORIAL5\PACKAGES\SDL2.V140.2.0.4\BUILD\NATIVE\INCLUDE\SDL_FILESYSTEM.H
C:\USERS\HANS\DROPBOX\DOCUMENTS\VISUAL STUDIO 2015\PROJECTS\GLTUTORIAL5\PACKAGES\SDL2.V140.2.0.4\BUILD\NATIVE\INCLUDE\SDL_HAPTIC.H
C:\USERS\HANS\DROPBOX\DOCUMENTS\VISUAL STUDIO 2015\PROJECTS\GLTUTORIAL5\PACKAGES\SDL2.V140.2.0.4\BUILD\NATIVE\INCLUDE\SDL_HINTS.H
C:\USERS\HANS\DROPBOX\DOCUMENTS\VISUAL STUDIO 2015\PROJECTS\GLTUTORIAL5\PACKAGES\SDL2.V140.2.0.4\BUILD\NATIVE\INCLUDE\SDL_LOADSO.H
C:\USERS\HANS\DROPBOX\DOCUMENTS\VISUAL STUDIO 2015\PROJECTS\GLTUTORIAL5\PACKAGES\SDL2.V140.2.0.4\BUILD\NATIVE\INCLUDE\SDL_LOG.H
C:\USERS\HANS\DROPBOX\DOCUMENTS\VISUAL STUDIO 2015\PROJECTS\GLTUTORIAL5\PACKAGES\SDL2.V140.2.0.4\BUILD\NATIVE\INCLUDE\SDL_MESSAGEBOX.H
C:\USERS\HANS\DROPBOX\DOCUMENTS\VISUAL STUDIO 2015\PROJECTS\GLTUTORIAL5\PACKAGES\SDL2.V140.2.0.4\BUILD\NATIVE\INCLUDE\SDL_POWER.H
C:\USERS\HANS\DROPBOX\DOCUMENTS\VISUAL STUDIO 2015\PROJECTS\GLTUTORIAL5\PACKAGES\SDL2.V140.2.0.4\BUILD\NATIVE\INCLUDE\SDL_RENDER.H
C:\USERS\HANS\DROPBOX\DOCUMENTS\VISUAL STUDIO 2015\PROJECTS\GLTUTORIAL5\PACKAGES\SDL2.V140.2.0.4\BUILD\NATIVE\INCLUDE\SDL_SYSTEM.H
C:\USERS\HANS\DROPBOX\DOCUMENTS\VISUAL STUDIO 2015\PROJECTS\GLTUTORIAL5\PACKAGES\SDL2.V140.2.0.4\BUILD\NATIVE\INCLUDE\SDL_TIMER.H
C:\USERS\HANS\DROPBOX\DOCUMENTS\VISUAL STUDIO 2015\PROJECTS\GLTUTORIAL5\PACKAGES\SDL2.V140.2.0.4\BUILD\NATIVE\INCLUDE\SDL_VERSION.H
C:\USERS\HANS\DROPBOX\DOCUMENTS\VISUAL STUDIO 2015\PROJECTS\GLTUTORIAL5\PACKAGES\SDL2_IMAGE.V140.2.0.1\BUILD\NATIVE\INCLUDE\SDL_IMAGE.H
C:\USERS\HANS\DROPBOX\DOCUMENTS\VISUAL STUDIO 2015\PROJECTS\GLTUTORIAL5\PACKAGES\SDL2.V140.2.0.4\BUILD\NATIVE\INCLUDE\SDL_OPENGLES2.H
C:\USERS\HANS\DROPBOX\DOCUMENTS\VISUAL STUDIO 2015\PROJECTS\GLTUTORIAL5\PACKAGES\SDL2.V140.2.0.4\BUILD\NATIVE\INCLUDE\SDL_OPENGLES2_KHRPLATFORM.H
C:\USERS\HANS\DROPBOX\DOCUMENTS\VISUAL STUDIO 2015\PROJECTS\GLTUTORIAL5\PACKAGES\SDL2.V140.2.0.4\BUILD\NATIVE\INCLUDE\SDL_OPENGLES2_GL2PLATFORM.H
C:\USERS\HANS\DROPBOX\DOCUMENTS\VISUAL STUDIO 2015\PROJECTS\GLTUTORIAL5\PACKAGES\SDL2.V140.2.0.4\BUILD\NATIVE\INCLUDE\SDL_OPENGLES2_GL2.H
C:\USERS\HANS\DROPBOX\DOCUMENTS\VISUAL STUDIO 2015\PROJECTS\GLTUTORIAL5\PACKAGES\SDL2.V140.2.0.4\BUILD\NATIVE\INCLUDE\SDL_OPENGLES2_GL2EXT.H
^C:\USERS\HANS\DROPBOX\DOCUMENTS\VISUAL STUDIO 2015\PROJECTS\GLTUTORIAL5\GLTUTORIAL5\SHADER.CPP
C:\PROGRAM FILES (X86)\MICROSOFT VISUAL STUDIO 14.0\VC\BIN\VCTIP.EXE
C:\USERS\HANS\DROPBOX\DOCUMENTS\VISUAL STUDIO 2015\PROJECTS\GLTUTORIAL5\GLTUTORIAL5\SHADER.H
C:\USERS\HANS\DROPBOX\DOCUMENTS\VISUAL STUDIO 2015\PROJECTS\GLTUTORIAL5\GLTUTORIAL5\ANGLE\INCLUDE\GLES3\GL3.H
C:\USERS\HANS\DROPBOX\DOCUMENTS\VISUAL STUDIO 2015\PROJECTS\GLTUTORIAL5\GLTUTORIAL5\ANGLE\INCLUDE\GLES3\GL3PLATFORM.H
C:\USERS\HANS\DROPBOX\DOCUMENTS\VISUAL STUDIO 2015\PROJECTS\GLTUTORIAL5\GLTUTORIAL5\ANGLE\INCLUDE\KHR\KHRPLATFORM.H
C:\PROGRAM FILES (X86)\MICROSOFT VISUAL STUDIO 14.0\VC\INCLUDE\CSTDIO
C:\PROGRAM FILES (X86)\MICROSOFT VISUAL STUDIO 14.0\VC\INCLUDE\YVALS.H
C:\PROGRAM FILES (X86)\MICROSOFT VISUAL STUDIO 14.0\VC\INCLUDE\XKEYCHECK.H
C:\PROGRAM FILES (X86)\MICROSOFT VISUAL STUDIO 14.0\VC\INCLUDE\CRTDEFS.H
C:\PROGRAM FILES (X86)\MICROSOFT VISUAL STUDIO 14.0\VC\INCLUDE\VCRUNTIME.H
C:\PROGRAM FILES (X86)\MICROSOFT VISUAL STUDIO 14.0\VC\INCLUDE\SAL.H
C:\PROGRAM FILES (X86)\MICROSOFT VISUAL STUDIO 14.0\VC\INCLUDE\CONCURRENCYSAL.H
C:\PROGRAM FILES (X86)\MICROSOFT VISUAL STUDIO 14.0\VC\INCLUDE\VADEFS.H
C:\PROGRAM FILES (X86)\WINDOWS KITS\10\INCLUDE\10.0.10240.0\UCRT\CORECRT.H
C:\PROGRAM FILES (X86)\MICROSOFT VISUAL STUDIO 14.0\VC\INCLUDE\USE_ANSI.H
C:\PROGRAM FILES (X86)\WINDOWS KITS\10\INCLUDE\10.0.10240.0\UCRT\STDIO.H
C:\PROGRAM FILES (X86)\WINDOWS KITS\10\INCLUDE\10.0.10240.0\UCRT\CORECRT_WSTDIO.H
C:\PROGRAM FILES (X86)\WINDOWS KITS\10\INCLUDE\10.0.10240.0\UCRT\CORECRT_STDIO_CONFIG.H
C:\PROGRAM FILES (X86)\MICROSOFT VISUAL STUDIO 14.0\VC\INCLUDE\CSTDLIB
C:\PROGRAM FILES (X86)\WINDOWS KITS\10\INCLUDE\10.0.10240.0\UCRT\STDLIB.H
C:\PROGRAM FILES (X86)\WINDOWS KITS\10\INCLUDE\10.0.10240.0\UCRT\CORECRT_MALLOC.H
C:\PROGRAM FILES (X86)\WINDOWS KITS\10\INCLUDE\10.0.10240.0\UCRT\CORECRT_SEARCH.H
C:\PROGRAM FILES (X86)\WINDOWS KITS\10\INCLUDE\10.0.10240.0\UCRT\STDDEF.H
C:\PROGRAM FILES (X86)\WINDOWS KITS\10\INCLUDE\10.0.10240.0\UCRT\CORECRT_WSTDLIB.H
C:\PROGRAM FILES (X86)\MICROSOFT VISUAL STUDIO 14.0\VC\INCLUDE\LIMITS.H
C:\USERS\HANS\DROPBOX\DOCUMENTS\VISUAL STUDIO 2015\PROJECTS\GLTUTORIAL5\PACKAGES\SDL2.2.0.5\BUILD\NATIVE\INCLUDE\SDL.H
C:\USERS\HANS\DROPBOX\DOCUMENTS\VISUAL STUDIO 2015\PROJECTS\GLTUTORIAL5\PACKAGES\SDL2.2.0.5\BUILD\NATIVE\INCLUDE\SDL_MAIN.H
C:\USERS\HANS\DROPBOX\DOCUMENTS\VISUAL STUDIO 2015\PROJECTS\GLTUTORIAL5\PACKAGES\SDL2.2.0.5\BUILD\NATIVE\INCLUDE\SDL_STDINC.H
C:\USERS\HANS\DROPBOX\DOCUMENTS\VISUAL STUDIO 2015\PROJECTS\GLTUTORIAL5\PACKAGES\SDL2.2.0.5\BUILD\NATIVE\INCLUDE\SDL_CONFIG.H
C:\USERS\HANS\DROPBOX\DOCUMENTS\VISUAL STUDIO 2015\PROJECTS\GLTUTORIAL5\PACKAGES\SDL2.2.0.5\BUILD\NATIVE\INCLUDE\SDL_PLATFORM.H
C:\PROGRAM FILES (X86)\WINDOWS KITS\8.1\INCLUDE\SHARED\WINAPIFAMILY.H
C:\USERS\HANS\DROPBOX\DOCUMENTS\VISUAL STUDIO 2015\PROJECTS\GLTUTORIAL5\PACKAGES\SDL2.2.0.5\BUILD\NATIVE\INCLUDE\BEGIN_CODE.H
C:\USERS\HANS\DROPBOX\DOCUMENTS\VISUAL STUDIO 2015\PROJECTS\GLTUTORIAL5\PACKAGES\SDL2.2.0.5\BUILD\NATIVE\INCLUDE\CLOSE_CODE.H
C:\PROGRAM FILES (X86)\MICROSOFT VISUAL STUDIO 14.0\VC\INCLUDE\STDARG.H
C:\USERS\HANS\DROPBOX\DOCUMENTS\VISUAL STUDIO 2015\PROJECTS\GLTUTORIAL5\PACKAGES\SDL2.2.0.5\BUILD\NATIVE\INCLUDE\SDL_ASSERT.H
C:\USERS\HANS\DROPBOX\DOCUMENTS\VISUAL STUDIO 2015\PROJECTS\GLTUTORIAL5\PACKAGES\SDL2.2.0.5\BUILD\NATIVE\INCLUDE\SDL_ATOMIC.H
C:\USERS\HANS\DROPBOX\DOCUMENTS\VISUAL STUDIO 2015\PROJECTS\GLTUTORIAL5\PACKAGES\SDL2.2.0.5\BUILD\NATIVE\INCLUDE\SDL_AUDIO.H
C:\USERS\HANS\DROPBOX\DOCUMENTS\VISUAL STUDIO 2015\PROJECTS\GLTUTORIAL5\PACKAGES\SDL2.2.0.5\BUILD\NATIVE\INCLUDE\SDL_ERROR.H
C:\USERS\HANS\DROPBOX\DOCUMENTS\VISUAL STUDIO 2015\PROJECTS\GLTUTORIAL5\PACKAGES\SDL2.2.0.5\BUILD\NATIVE\INCLUDE\SDL_ENDIAN.H
C:\USERS\HANS\DROPBOX\DOCUMENTS\VISUAL STUDIO 2015\PROJECTS\GLTUTORIAL5\PACKAGES\SDL2.2.0.5\BUILD\NATIVE\INCLUDE\SDL_MUTEX.H
C:\USERS\HANS\DROPBOX\DOCUMENTS\VISUAL STUDIO 2015\PROJECTS\GLTUTORIAL5\PACKAGES\SDL2.2.0.5\BUILD\NATIVE\INCLUDE\SDL_THREAD.H
C:\PROGRAM FILES (X86)\WINDOWS KITS\10\INCLUDE\10.0.10240.0\UCRT\PROCESS.H
C:\PROGRAM FILES (X86)\WINDOWS KITS\10\INCLUDE\10.0.10240.0\UCRT\CORECRT_STARTUP.H
C:\PROGRAM FILES (X86)\WINDOWS KITS\10\INCLUDE\10.0.10240.0\UCRT\MATH.H
C:\PROGRAM FILES (X86)\MICROSOFT VISUAL STUDIO 14.0\VC\INCLUDE\VCRUNTIME_STARTUP.H
C:\PROGRAM FILES (X86)\WINDOWS KITS\10\INCLUDE\10.0.10240.0\UCRT\CORECRT_WPROCESS.H
C:\USERS\HANS\DROPBOX\DOCUMENTS\VISUAL STUDIO 2015\PROJECTS\GLTUTORIAL5\PACKAGES\SDL2.2.0.5\BUILD\NATIVE\INCLUDE\SDL_RWOPS.H
C:\USERS\HANS\DROPBOX\DOCUMENTS\VISUAL STUDIO 2015\PROJECTS\GLTUTORIAL5\PACKAGES\SDL2.2.0.5\BUILD\NATIVE\INCLUDE\SDL_CLIPBOARD.H
C:\USERS\HANS\DROPBOX\DOCUMENTS\VISUAL STUDIO 2015\PROJECTS\GLTUTORIAL5\PACKAGES\SDL2.2.0.5\BUILD\NATIVE\INCLUDE\SDL_CPUINFO.H
C:\PROGRAM FILES (X86)\MICROSOFT VISUAL STUDIO 14.0\VC\INCLUDE\INTRIN.H
C:\PROGRAM FILES (X86)\MICROSOFT VISUAL STUDIO 14.0\VC\INCLUDE\SETJMP.H
C:\PROGRAM FILES (X86)\MICROSOFT VISUAL STUDIO 14.0\VC\INCLUDE\IMMINTRIN.H
C:\PROGRAM FILES (X86)\MICROSOFT VISUAL STUDIO 14.0\VC\INCLUDE\WMMINTRIN.H
C:\PROGRAM FILES (X86)\MICROSOFT VISUAL STUDIO 14.0\VC\INCLUDE\NMMINTRIN.H
C:\PROGRAM FILES (X86)\MICROSOFT VISUAL STUDIO 14.0\VC\INCLUDE\SMMINTRIN.H
C:\PROGRAM FILES (X86)\MICROSOFT VISUAL STUDIO 14.0\VC\INCLUDE\TMMINTRIN.H
C:\PROGRAM FILES (X86)\MICROSOFT VISUAL STUDIO 14.0\VC\INCLUDE\PMMINTRIN.H
C:\PROGRAM FILES (X86)\MICROSOFT VISUAL STUDIO 14.0\VC\INCLUDE\EMMINTRIN.H
C:\PROGRAM FILES (X86)\MICROSOFT VISUAL STUDIO 14.0\VC\INCLUDE\XMMINTRIN.H
C:\PROGRAM FILES (X86)\MICROSOFT VISUAL STUDIO 14.0\VC\INCLUDE\MMINTRIN.H
C:\PROGRAM FILES (X86)\WINDOWS KITS\10\INCLUDE\10.0.10240.0\UCRT\MALLOC.H
C:\PROGRAM FILES (X86)\MICROSOFT VISUAL STUDIO 14.0\VC\INCLUDE\AMMINTRIN.H
C:\PROGRAM FILES (X86)\MICROSOFT VISUAL STUDIO 14.0\VC\INCLUDE\MM3DNOW.H
C:\USERS\HANS\DROPBOX\DOCUMENTS\VISUAL STUDIO 2015\PROJECTS\GLTUTORIAL5\PACKAGES\SDL2.2.0.5\BUILD\NATIVE\INCLUDE\SDL_EVENTS.H
C:\USERS\HANS\DROPBOX\DOCUMENTS\VISUAL STUDIO 2015\PROJECTS\GLTUTORIAL5\PACKAGES\SDL2.2.0.5\BUILD\NATIVE\INCLUDE\SDL_VIDEO.H
C:\USERS\HANS\DROPBOX\DOCUMENTS\VISUAL STUDIO 2015\PROJECTS\GLTUTORIAL5\PACKAGES\SDL2.2.0.5\BUILD\NATIVE\INCLUDE\SDL_PIXELS.H
C:\USERS\HANS\DROPBOX\DOCUMENTS\VISUAL STUDIO 2015\PROJECTS\GLTUTORIAL5\PACKAGES\SDL2.2.0.5\BUILD\NATIVE\INCLUDE\SDL_RECT.H
C:\USERS\HANS\DROPBOX\DOCUMENTS\VISUAL STUDIO 2015\PROJECTS\GLTUTORIAL5\PACKAGES\SDL2.2.0.5\BUILD\NATIVE\INCLUDE\SDL_SURFACE.H
C:\USERS\HANS\DROPBOX\DOCUMENTS\VISUAL STUDIO 2015\PROJECTS\GLTUTORIAL5\PACKAGES\SDL2.2.0.5\BUILD\NATIVE\INCLUDE\SDL_BLENDMODE.H
C:\USERS\HANS\DROPBOX\DOCUMENTS\VISUAL STUDIO 2015\PROJECTS\GLTUTORIAL5\PACKAGES\SDL2.2.0.5\BUILD\NATIVE\INCLUDE\SDL_KEYBOARD.H
C:\USERS\HANS\DROPBOX\DOCUMENTS\VISUAL STUDIO 2015\PROJECTS\GLTUTORIAL5\PACKAGES\SDL2.2.0.5\BUILD\NATIVE\INCLUDE\SDL_KEYCODE.H
C:\USERS\HANS\DROPBOX\DOCUMENTS\VISUAL STUDIO 2015\PROJECTS\GLTUTORIAL5\PACKAGES\SDL2.2.0.5\BUILD\NATIVE\INCLUDE\SDL_SCANCODE.H
C:\USERS\HANS\DROPBOX\DOCUMENTS\VISUAL STUDIO 2015\PROJECTS\GLTUTORIAL5\PACKAGES\SDL2.2.0.5\BUILD\NATIVE\INCLUDE\SDL_MOUSE.H
C:\USERS\HANS\DROPBOX\DOCUMENTS\VISUAL STUDIO 2015\PROJECTS\GLTUTORIAL5\PACKAGES\SDL2.2.0.5\BUILD\NATIVE\INCLUDE\SDL_JOYSTICK.H
C:\USERS\HANS\DROPBOX\DOCUMENTS\VISUAL STUDIO 2015\PROJECTS\GLTUTORIAL5\PACKAGES\SDL2.2.0.5\BUILD\NATIVE\INCLUDE\SDL_GAMECONTROLLER.H
C:\USERS\HANS\DROPBOX\DOCUMENTS\VISUAL STUDIO 2015\PROJECTS\GLTUTORIAL5\PACKAGES\SDL2.2.0.5\BUILD\NATIVE\INCLUDE\SDL_QUIT.H
C:\USERS\HANS\DROPBOX\DOCUMENTS\VISUAL STUDIO 2015\PROJECTS\GLTUTORIAL5\PACKAGES\SDL2.2.0.5\BUILD\NATIVE\INCLUDE\SDL_GESTURE.H
C:\USERS\HANS\DROPBOX\DOCUMENTS\VISUAL STUDIO 2015\PROJECTS\GLTUTORIAL5\PACKAGES\SDL2.2.0.5\BUILD\NATIVE\INCLUDE\SDL_TOUCH.H
C:\USERS\HANS\DROPBOX\DOCUMENTS\VISUAL STUDIO 2015\PROJECTS\GLTUTORIAL5\PACKAGES\SDL2.2.0.5\BUILD\NATIVE\INCLUDE\SDL_FILESYSTEM.H
C:\USERS\HANS\DROPBOX\DOCUMENTS\VISUAL STUDIO 2015\PROJECTS\GLTUTORIAL5\PACKAGES\SDL2.2.0.5\BUILD\NATIVE\INCLUDE\SDL_HAPTIC.H
C:\USERS\HANS\DROPBOX\DOCUMENTS\VISUAL STUDIO 2015\PROJECTS\GLTUTORIAL5\PACKAGES\SDL2.2.0.5\BUILD\NATIVE\INCLUDE\SDL_HINTS.H
C:\USERS\HANS\DROPBOX\DOCUMENTS\VISUAL STUDIO 2015\PROJECTS\GLTUTORIAL5\PACKAGES\SDL2.2.0.5\BUILD\NATIVE\INCLUDE\SDL_LOADSO.H
C:\USERS\HANS\DROPBOX\DOCUMENTS\VISUAL STUDIO 2015\PROJECTS\GLTUTORIAL5\PACKAGES\SDL2.2.0.5\BUILD\NATIVE\INCLUDE\SDL_LOG.H
C:\USERS\HANS\DROPBOX\DOCUMENTS\VISUAL STUDIO 2015\PROJECTS\GLTUTORIAL5\PACKAGES\SDL2.2.0.5\BUILD\NATIVE\INCLUDE\SDL_MESSAGEBOX.H
C:\USERS\HANS\DROPBOX\DOCUMENTS\VISUAL STUDIO 2015\PROJECTS\GLTUTORIAL5\PACKAGES\SDL2.2.0.5\BUILD\NATIVE\INCLUDE\SDL_POWER.H
C:\USERS\HANS\DROPBOX\DOCUMENTS\VISUAL STUDIO 2015\PROJECTS\GLTUTORIAL5\PACKAGES\SDL2.2.0.5\BUILD\NATIVE\INCLUDE\SDL_RENDER.H
C:\USERS\HANS\DROPBOX\DOCUMENTS\VISUAL STUDIO 2015\PROJECTS\GLTUTORIAL5\PACKAGES\SDL2.2.0.5\BUILD\NATIVE\INCLUDE\SDL_SYSTEM.H
C:\USERS\HANS\DROPBOX\DOCUMENTS\VISUAL STUDIO 2015\PROJECTS\GLTUTORIAL5\PACKAGES\SDL2.2.0.5\BUILD\NATIVE\INCLUDE\SDL_TIMER.H
C:\USERS\HANS\DROPBOX\DOCUMENTS\VISUAL STUDIO 2015\PROJECTS\GLTUTORIAL5\PACKAGES\SDL2.2.0.5\BUILD\NATIVE\INCLUDE\SDL_VERSION.H
C:\USERS\HANS\DROPBOX\DOCUMENTS\VISUAL STUDIO 2015\PROJECTS\GLTUTORIAL5\PACKAGES\SDL2.2.0.5\BUILD\NATIVE\INCLUDE\SDL_OPENGLES2.H
C:\USERS\HANS\DROPBOX\DOCUMENTS\VISUAL STUDIO 2015\PROJECTS\GLTUTORIAL5\PACKAGES\SDL2.2.0.5\BUILD\NATIVE\INCLUDE\SDL_OPENGLES2_KHRPLATFORM.H
C:\USERS\HANS\DROPBOX\DOCUMENTS\VISUAL STUDIO 2015\PROJECTS\GLTUTORIAL5\PACKAGES\SDL2.2.0.5\BUILD\NATIVE\INCLUDE\SDL_OPENGLES2_GL2PLATFORM.H
C:\USERS\HANS\DROPBOX\DOCUMENTS\VISUAL STUDIO 2015\PROJECTS\GLTUTORIAL5\PACKAGES\SDL2.2.0.5\BUILD\NATIVE\INCLUDE\SDL_OPENGLES2_GL2.H
C:\USERS\HANS\DROPBOX\DOCUMENTS\VISUAL STUDIO 2015\PROJECTS\GLTUTORIAL5\PACKAGES\SDL2.2.0.5\BUILD\NATIVE\INCLUDE\SDL_OPENGLES2_GL2EXT.H
C:\USERS\HANS\DROPBOX\DOCUMENTS\VISUAL STUDIO 2015\PROJECTS\GLTUTORIAL5\PACKAGES\SDL2.V140.2.0.4\BUILD\NATIVE\INCLUDE\SDL.H
C:\USERS\HANS\DROPBOX\DOCUMENTS\VISUAL STUDIO 2015\PROJECTS\GLTUTORIAL5\PACKAGES\SDL2.V140.2.0.4\BUILD\NATIVE\INCLUDE\SDL_MAIN.H
C:\USERS\HANS\DROPBOX\DOCUMENTS\VISUAL STUDIO 2015\PROJECTS\GLTUTORIAL5\PACKAGES\SDL2.V140.2.0.4\BUILD\NATIVE\INCLUDE\SDL_STDINC.H
C:\USERS\HANS\DROPBOX\DOCUMENTS\VISUAL STUDIO 2015\PROJECTS\GLTUTORIAL5\PACKAGES\SDL2.V140.2.0.4\BUILD\NATIVE\INCLUDE\SDL_CONFIG.H
C:\USERS\HANS\DROPBOX\DOCUMENTS\VISUAL STUDIO 2015\PROJECTS\GLTUTORIAL5\PACKAGES\SDL2.V140.2.0.4\BUILD\NATIVE\INCLUDE\SDL_PLATFORM.H
C:\USERS\HANS\DROPBOX\DOCUMENTS\VISUAL STUDIO 2015\PROJECTS\GLTUTORIAL5\PACKAGES\SDL2.V140.2.0.4\BUILD\NATIVE\INCLUDE\BEGIN_CODE.H
C:\USERS\HANS\DROPBOX\DOCUMENTS\VISUAL STUDIO 2015\PROJECTS\GLTUTORIAL5\PACKAGES\SDL2.V140.2.0.4\BUILD\NATIVE\INCLUDE\CLOSE_CODE.H
C:\USERS\HANS\DROPBOX\DOCUMENTS\VISUAL STUDIO 2015\PROJECTS\GLTUTORIAL5\PACKAGES\SDL2.V140.2.0.4\BUILD\NATIVE\INCLUDE\SDL_CONFIG_WINDOWS.H
C:\USERS\HANS\DROPBOX\DOCUMENTS\VISUAL STUDIO 2015\PROJECTS\GLTUTORIAL5\PACKAGES\SDL2.V140.2.0.4\BUILD\NATIVE\INCLUDE\SDL_ASSERT.H
C:\USERS\HANS\DROPBOX\DOCUMENTS\VISUAL STUDIO 2015\PROJECTS\GLTUTORIAL5\PACKAGES\SDL2.V140.2.0.4\BUILD\NATIVE\INCLUDE\SDL_ATOMIC.H
C:\USERS\HANS\DROPBOX\DOCUMENTS\VISUAL STUDIO 2015\PROJECTS\GLTUTORIAL5\PACKAGES\SDL2.V140.2.0.4\BUILD\NATIVE\INCLUDE\SDL_AUDIO.H
C:\USERS\HANS\DROPBOX\DOCUMENTS\VISUAL STUDIO 2015\PROJECTS\GLTUTORIAL5\PACKAGES\SDL2.V140.2.0.4\BUILD\NATIVE\INCLUDE\SDL_ERROR.H
C:\USERS\HANS\DROPBOX\DOCUMENTS\VISUAL STUDIO 2015\PROJECTS\GLTUTORIAL5\PACKAGES\SDL2.V140.2.0.4\BUILD\NATIVE\INCLUDE\SDL_ENDIAN.H
C:\USERS\HANS\DROPBOX\DOCUMENTS\VISUAL STUDIO 2015\PROJECTS\GLTUTORIAL5\PACKAGES\SDL2.V140.2.0.4\BUILD\NATIVE\INCLUDE\SDL_MUTEX.H
C:\USERS\HANS\DROPBOX\DOCUMENTS\VISUAL STUDIO 2015\PROJECTS\GLTUTORIAL5\PACKAGES\SDL2.V140.2.0.4\BUILD\NATIVE\INCLUDE\SDL_THREAD.H
C:\USERS\HANS\DROPBOX\DOCUMENTS\VISUAL STUDIO 2015\PROJECTS\GLTUTORIAL5\PACKAGES\SDL2.V140.2.0.4\BUILD\NATIVE\INCLUDE\SDL_RWOPS.H
C:\USERS\HANS\DROPBOX\DOCUMENTS\VISUAL STUDIO 2015\PROJECTS\GLTUTORIAL5\PACKAGES\SDL2.V140.2.0.4\BUILD\NATIVE\INCLUDE\SDL_CLIPBOARD.H
C:\USERS\HANS\DROPBOX\DOCUMENTS\VISUAL STUDIO 2015\PROJECTS\GLTUTORIAL5\PACKAGES\SDL2.V140.2.0.4\BUILD\NATIVE\INCLUDE\SDL_CPUINFO.H
C:\USERS\HANS\DROPBOX\DOCUMENTS\VISUAL STUDIO 2015\PROJECTS\GLTUTORIAL5\PACKAGES\SDL2.V140.2.0.4\BUILD\NATIVE\INCLUDE\SDL_EVENTS.H
C:\USERS\HANS\DROPBOX\DOCUMENTS\VISUAL STUDIO 2015\PROJECTS\GLTUTORIAL5\PACKAGES\SDL2.V140.2.0.4\BUILD\NATIVE\INCLUDE\SDL_VIDEO.H
C:\USERS\HANS\DROPBOX\DOCUMENTS\VISUAL STUDIO 2015\PROJECTS\GLTUTORIAL5\PACKAGES\SDL2.V140.2.0.4\BUILD\NATIVE\INCLUDE\SDL_PIXELS.H
C:\USERS\HANS\DROPBOX\DOCUMENTS\VISUAL STUDIO 2015\PROJECTS\GLTUTORIAL5\PACKAGES\SDL2.V140.2.0.4\BUILD\NATIVE\INCLUDE\SDL_RECT.H
C:\USERS\HANS\DROPBOX\DOCUMENTS\VISUAL STUDIO 2015\PROJECTS\GLTUTORIAL5\PACKAGES\SDL2.V140.2.0.4\BUILD\NATIVE\INCLUDE\SDL_SURFACE.H
C:\USERS\HANS\DROPBOX\DOCUMENTS\VISUAL STUDIO 2015\PROJECTS\GLTUTORIAL5\PACKAGES\SDL2.V140.2.0.4\BUILD\NATIVE\INCLUDE\SDL_BLENDMODE.H
C:\USERS\HANS\DROPBOX\DOCUMENTS\VISUAL STUDIO 2015\PROJECTS\GLTUTORIAL5\PACKAGES\SDL2.V140.2.0.4\BUILD\NATIVE\INCLUDE\SDL_KEYBOARD.H
C:\USERS\HANS\DROPBOX\DOCUMENTS\VISUAL STUDIO 2015\PROJECTS\GLTUTORIAL5\PACKAGES\SDL2.V140.2.0.4\BUILD\NATIVE\INCLUDE\SDL_KEYCODE.H
C:\USERS\HANS\DROPBOX\DOCUMENTS\VISUAL STUDIO 2015\PROJECTS\GLTUTORIAL5\PACKAGES\SDL2.V140.2.0.4\BUILD\NATIVE\INCLUDE\SDL_SCANCODE.H
C:\USERS\HANS\DROPBOX\DOCUMENTS\VISUAL STUDIO 2015\PROJECTS\GLTUTORIAL5\PACKAGES\SDL2.V140.2.0.4\BUILD\NATIVE\INCLUDE\SDL_MOUSE.H
C:\USERS\HANS\DROPBOX\DOCUMENTS\VISUAL STUDIO 2015\PROJECTS\GLTUTORIAL5\PACKAGES\SDL2.V140.2.0.4\BUILD\NATIVE\INCLUDE\SDL_JOYSTICK.H
C:\USERS\HANS\DROPBOX\DOCUMENTS\VISUAL STUDIO 2015\PROJECTS\GLTUTORIAL5\PACKAGES\SDL2.V140.2.0.4\BUILD\NATIVE\INCLUDE\SDL_GAMECONTROLLER.H
C:\USERS\HANS\DROPBOX\DOCUMENTS\VISUAL STUDIO 2015\PROJECTS\GLTUTORIAL5\PACKAGES\SDL2.V140.2.0.4\BUILD\NATIVE\INCLUDE\SDL_QUIT.H
C:\USERS\HANS\DROPBOX\DOCUMENTS\VISUAL STUDIO 2015\PROJECTS\GLTUTORIAL5\PACKAGES\SDL2.V140.2.0.4\BUILD\NATIVE\INCLUDE\SDL_GESTURE.H
C:\USERS\HANS\DROPBOX\DOCUMENTS\VISUAL STUDIO 2015\PROJECTS\GLTUTORIAL5\PACKAGES\SDL2.V140.2.0.4\BUILD\NATIVE\INCLUDE\SDL_TOUCH.H
C:\USERS\HANS\DROPBOX\DOCUMENTS\VISUAL STUDIO 2015\PROJECTS\GLTUTORIAL5\PACKAGES\SDL2.V140.2.0.4\BUILD\NATIVE\INCLUDE\SDL_FILESYSTEM.H
C:\USERS\HANS\DROPBOX\DOCUMENTS\VISUAL STUDIO 2015\PROJECTS\GLTUTORIAL5\PACKAGES\SDL2.V140.2.0.4\BUILD\NATIVE\INCLUDE\SDL_HAPTIC.H
C:\USERS\HANS\DROPBOX\DOCUMENTS\VISUAL STUDIO 2015\PROJECTS\GLTUTORIAL5\PACKAGES\SDL2.V140.2.0.4\BUILD\NATIVE\INCLUDE\SDL_HINTS.H
C:\USERS\HANS\DROPBOX\DOCUMENTS\VISUAL STUDIO 2015\PROJECTS\GLTUTORIAL5\PACKAGES\SDL2.V140.2.0.4\BUILD\NATIVE\INCLUDE\SDL_LOADSO.H
C:\USERS\HANS\DROPBOX\DOCUMENTS\VISUAL STUDIO 2015\PROJECTS\GLTUTORIAL5\PACKAGES\SDL2.V140.2.0.4\BUILD\NATIVE\INCLUDE\SDL_LOG.H
C:\USERS\HANS\DROPBOX\DOCUMENTS\VISUAL STUDIO 2015\PROJECTS\GLTUTORIAL5\PACKAGES\SDL2.V140.2.0.4\BUILD\NATIVE\INCLUDE\SDL_MESSAGEBOX.H
C:\USERS\HANS\DROPBOX\DOCUMENTS\VISUAL STUDIO 2015\PROJECTS\GLTUTORIAL5\PACKAGES\SDL2.V140.2.0.4\BUILD\NATIVE\INCLUDE\SDL_POWER.H
C:\USERS\HANS\DROPBOX\DOCUMENTS\VISUAL STUDIO 2015\PROJECTS\GLTUTORIAL5\PACKAGES\SDL2.V140.2.0.4\BUILD\NATIVE\INCLUDE\SDL_RENDER.H
C:\USERS\HANS\DROPBOX\DOCUMENTS\VISUAL STUDIO 2015\PROJECTS\GLTUTORIAL5\PACKAGES\SDL2.V140.2.0.4\BUILD\NATIVE\INCLUDE\SDL_SYSTEM.H
C:\USERS\HANS\DROPBOX\DOCUMENTS\VISUAL STUDIO 2015\PROJECTS\GLTUTORIAL5\PACKAGES\SDL2.V140.2.0.4\BUILD\NATIVE\INCLUDE\SDL_TIMER.H
C:\USERS\HANS\DROPBOX\DOCUMENTS\VISUAL STUDIO 2015\PROJECTS\GLTUTORIAL5\PACKAGES\SDL2.V140.2.0.4\BUILD\NATIVE\INCLUDE\SDL_VERSION.H
C:\USERS\HANS\DROPBOX\DOCUMENTS\VISUAL STUDIO 2015\PROJECTS\GLTUTORIAL5\PACKAGES\SDL2.V140.2.0.4\BUILD\NATIVE\INCLUDE\SDL_OPENGLES2.H
C:\USERS\HANS\DROPBOX\DOCUMENTS\VISUAL STUDIO 2015\PROJECTS\GLTUTORIAL5\PACKAGES\SDL2.V140.2.0.4\BUILD\NATIVE\INCLUDE\SDL_OPENGLES2_KHRPLATFORM.H
C:\USERS\HANS\DROPBOX\DOCUMENTS\VISUAL STUDIO 2015\PROJECTS\GLTUTORIAL5\PACKAGES\SDL2.V140.2.0.4\BUILD\NATIVE\INCLUDE\SDL_OPENGLES2_GL2PLATFORM.H
C:\USERS\HANS\DROPBOX\DOCUMENTS\VISUAL STUDIO 2015\PROJECTS\GLTUTORIAL5\PACKAGES\SDL2.V140.2.0.4\BUILD\NATIVE\INCLUDE\SDL_OPENGLES2_GL2.H
C:\USERS\HANS\DROPBOX\DOCUMENTS\VISUAL STUDIO 2015\PROJECTS\GLTUTORIAL5\PACKAGES\SDL2.V140.2.0.4\BUILD\NATIVE\INCLUDE\SDL_OPENGLES2_GL2EXT.H
^C:\USERS\HANS\DROPBOX\DOCUMENTS\VISUAL STUDIO 2015\PROJECTS\GLTUTORIAL5\GLTUTORIAL5\MAIN.CPP
C:\USERS\HANS\DROPBOX\DOCUMENTS\VISUAL STUDIO 2015\PROJECTS\GLTUTORIAL5\PACKAGES\SDL2.2.0.5\BUILD\NATIVE\INCLUDE\SDL.H
C:\USERS\HANS\DROPBOX\DOCUMENTS\VISUAL STUDIO 2015\PROJECTS\GLTUTORIAL5\PACKAGES\SDL2.2.0.5\BUILD\NATIVE\INCLUDE\SDL_MAIN.H
C:\USERS\HANS\DROPBOX\DOCUMENTS\VISUAL STUDIO 2015\PROJECTS\GLTUTORIAL5\PACKAGES\SDL2.2.0.5\BUILD\NATIVE\INCLUDE\SDL_STDINC.H
C:\USERS\HANS\DROPBOX\DOCUMENTS\VISUAL STUDIO 2015\PROJECTS\GLTUTORIAL5\PACKAGES\SDL2.2.0.5\BUILD\NATIVE\INCLUDE\SDL_CONFIG.H
C:\USERS\HANS\DROPBOX\DOCUMENTS\VISUAL STUDIO 2015\PROJECTS\GLTUTORIAL5\PACKAGES\SDL2.2.0.5\BUILD\NATIVE\INCLUDE\SDL_PLATFORM.H
C:\PROGRAM FILES (X86)\WINDOWS KITS\8.1\INCLUDE\SHARED\WINAPIFAMILY.H
C:\USERS\HANS\DROPBOX\DOCUMENTS\VISUAL STUDIO 2015\PROJECTS\GLTUTORIAL5\PACKAGES\SDL2.2.0.5\BUILD\NATIVE\INCLUDE\BEGIN_CODE.H
C:\USERS\HANS\DROPBOX\DOCUMENTS\VISUAL STUDIO 2015\PROJECTS\GLTUTORIAL5\PACKAGES\SDL2.2.0.5\BUILD\NATIVE\INCLUDE\CLOSE_CODE.H
C:\PROGRAM FILES (X86)\WINDOWS KITS\10\INCLUDE\10.0.10240.0\UCRT\STDDEF.H
C:\PROGRAM FILES (X86)\WINDOWS KITS\10\INCLUDE\10.0.10240.0\UCRT\CORECRT.H
C:\PROGRAM FILES (X86)\MICROSOFT VISUAL STUDIO 14.0\VC\INCLUDE\VCRUNTIME.H
C:\PROGRAM FILES (X86)\MICROSOFT VISUAL STUDIO 14.0\VC\INCLUDE\SAL.H
C:\PROGRAM FILES (X86)\MICROSOFT VISUAL STUDIO 14.0\VC\INCLUDE\CONCURRENCYSAL.H
C:\PROGRAM FILES (X86)\MICROSOFT VISUAL STUDIO 14.0\VC\INCLUDE\VADEFS.H
C:\PROGRAM FILES (X86)\MICROSOFT VISUAL STUDIO 14.0\VC\INCLUDE\STDARG.H
C:\USERS\HANS\DROPBOX\DOCUMENTS\VISUAL STUDIO 2015\PROJECTS\GLTUTORIAL5\PACKAGES\SDL2.2.0.5\BUILD\NATIVE\INCLUDE\SDL_ASSERT.H
C:\USERS\HANS\DROPBOX\DOCUMENTS\VISUAL STUDIO 2015\PROJECTS\GLTUTORIAL5\PACKAGES\SDL2.2.0.5\BUILD\NATIVE\INCLUDE\SDL_ATOMIC.H
C:\USERS\HANS\DROPBOX\DOCUMENTS\VISUAL STUDIO 2015\PROJECTS\GLTUTORIAL5\PACKAGES\SDL2.2.0.5\BUILD\NATIVE\INCLUDE\SDL_AUDIO.H
C:\USERS\HANS\DROPBOX\DOCUMENTS\VISUAL STUDIO 2015\PROJECTS\GLTUTORIAL5\PACKAGES\SDL2.2.0.5\BUILD\NATIVE\INCLUDE\SDL_ERROR.H
C:\USERS\HANS\DROPBOX\DOCUMENTS\VISUAL STUDIO 2015\PROJECTS\GLTUTORIAL5\PACKAGES\SDL2.2.0.5\BUILD\NATIVE\INCLUDE\SDL_ENDIAN.H
C:\USERS\HANS\DROPBOX\DOCUMENTS\VISUAL STUDIO 2015\PROJECTS\GLTUTORIAL5\PACKAGES\SDL2.2.0.5\BUILD\NATIVE\INCLUDE\SDL_MUTEX.H
C:\USERS\HANS\DROPBOX\DOCUMENTS\VISUAL STUDIO 2015\PROJECTS\GLTUTORIAL5\PACKAGES\SDL2.2.0.5\BUILD\NATIVE\INCLUDE\SDL_THREAD.H
C:\PROGRAM FILES (X86)\WINDOWS KITS\10\INCLUDE\10.0.10240.0\UCRT\PROCESS.H
C:\PROGRAM FILES (X86)\WINDOWS KITS\10\INCLUDE\10.0.10240.0\UCRT\CORECRT_STARTUP.H
C:\PROGRAM FILES (X86)\WINDOWS KITS\10\INCLUDE\10.0.10240.0\UCRT\MATH.H
C:\PROGRAM FILES (X86)\MICROSOFT VISUAL STUDIO 14.0\VC\INCLUDE\VCRUNTIME_STARTUP.H
C:\PROGRAM FILES (X86)\WINDOWS KITS\10\INCLUDE\10.0.10240.0\UCRT\CORECRT_WPROCESS.H
C:\USERS\HANS\DROPBOX\DOCUMENTS\VISUAL STUDIO 2015\PROJECTS\GLTUTORIAL5\PACKAGES\SDL2.2.0.5\BUILD\NATIVE\INCLUDE\SDL_RWOPS.H
C:\USERS\HANS\DROPBOX\DOCUMENTS\VISUAL STUDIO 2015\PROJECTS\GLTUTORIAL5\PACKAGES\SDL2.2.0.5\BUILD\NATIVE\INCLUDE\SDL_CLIPBOARD.H
C:\USERS\HANS\DROPBOX\DOCUMENTS\VISUAL STUDIO 2015\PROJECTS\GLTUTORIAL5\PACKAGES\SDL2.2.0.5\BUILD\NATIVE\INCLUDE\SDL_CPUINFO.H
C:\PROGRAM FILES (X86)\MICROSOFT VISUAL STUDIO 14.0\VC\INCLUDE\INTRIN.H
C:\PROGRAM FILES (X86)\MICROSOFT VISUAL STUDIO 14.0\VC\INCLUDE\SETJMP.H
C:\PROGRAM FILES (X86)\MICROSOFT VISUAL STUDIO 14.0\VC\INCLUDE\IMMINTRIN.H
C:\PROGRAM FILES (X86)\MICROSOFT VISUAL STUDIO 14.0\VC\INCLUDE\WMMINTRIN.H
C:\PROGRAM FILES (X86)\MICROSOFT VISUAL STUDIO 14.0\VC\INCLUDE\NMMINTRIN.H
C:\PROGRAM FILES (X86)\MICROSOFT VISUAL STUDIO 14.0\VC\INCLUDE\SMMINTRIN.H
C:\PROGRAM FILES (X86)\MICROSOFT VISUAL STUDIO 14.0\VC\INCLUDE\TMMINTRIN.H
C:\PROGRAM FILES (X86)\MICROSOFT VISUAL STUDIO 14.0\VC\INCLUDE\PMMINTRIN.H
C:\PROGRAM FILES (X86)\MICROSOFT VISUAL STUDIO 14.0\VC\INCLUDE\EMMINTRIN.H
C:\PROGRAM FILES (X86)\MICROSOFT VISUAL STUDIO 14.0\VC\INCLUDE\XMMINTRIN.H
C:\PROGRAM FILES (X86)\MICROSOFT VISUAL STUDIO 14.0\VC\INCLUDE\MMINTRIN.H
C:\PROGRAM FILES (X86)\WINDOWS KITS\10\INCLUDE\10.0.10240.0\UCRT\MALLOC.H
C:\PROGRAM FILES (X86)\WINDOWS KITS\10\INCLUDE\10.0.10240.0\UCRT\CORECRT_MALLOC.H
C:\PROGRAM FILES (X86)\MICROSOFT VISUAL STUDIO 14.0\VC\INCLUDE\AMMINTRIN.H
C:\PROGRAM FILES (X86)\MICROSOFT VISUAL STUDIO 14.0\VC\INCLUDE\MM3DNOW.H
C:\USERS\HANS\DROPBOX\DOCUMENTS\VISUAL STUDIO 2015\PROJECTS\GLTUTORIAL5\PACKAGES\SDL2.2.0.5\BUILD\NATIVE\INCLUDE\SDL_EVENTS.H
C:\USERS\HANS\DROPBOX\DOCUMENTS\VISUAL STUDIO 2015\PROJECTS\GLTUTORIAL5\PACKAGES\SDL2.2.0.5\BUILD\NATIVE\INCLUDE\SDL_VIDEO.H
C:\USERS\HANS\DROPBOX\DOCUMENTS\VISUAL STUDIO 2015\PROJECTS\GLTUTORIAL5\PACKAGES\SDL2.2.0.5\BUILD\NATIVE\INCLUDE\SDL_PIXELS.H
C:\USERS\HANS\DROPBOX\DOCUMENTS\VISUAL STUDIO 2015\PROJECTS\GLTUTORIAL5\PACKAGES\SDL2.2.0.5\BUILD\NATIVE\INCLUDE\SDL_RECT.H
C:\USERS\HANS\DROPBOX\DOCUMENTS\VISUAL STUDIO 2015\PROJECTS\GLTUTORIAL5\PACKAGES\SDL2.2.0.5\BUILD\NATIVE\INCLUDE\SDL_SURFACE.H
C:\USERS\HANS\DROPBOX\DOCUMENTS\VISUAL STUDIO 2015\PROJECTS\GLTUTORIAL5\PACKAGES\SDL2.2.0.5\BUILD\NATIVE\INCLUDE\SDL_BLENDMODE.H
C:\USERS\HANS\DROPBOX\DOCUMENTS\VISUAL STUDIO 2015\PROJECTS\GLTUTORIAL5\PACKAGES\SDL2.2.0.5\BUILD\NATIVE\INCLUDE\SDL_KEYBOARD.H
C:\USERS\HANS\DROPBOX\DOCUMENTS\VISUAL STUDIO 2015\PROJECTS\GLTUTORIAL5\PACKAGES\SDL2.2.0.5\BUILD\NATIVE\INCLUDE\SDL_KEYCODE.H
C:\USERS\HANS\DROPBOX\DOCUMENTS\VISUAL STUDIO 2015\PROJECTS\GLTUTORIAL5\PACKAGES\SDL2.2.0.5\BUILD\NATIVE\INCLUDE\SDL_SCANCODE.H
C:\USERS\HANS\DROPBOX\DOCUMENTS\VISUAL STUDIO 2015\PROJECTS\GLTUTORIAL5\PACKAGES\SDL2.2.0.5\BUILD\NATIVE\INCLUDE\SDL_MOUSE.H
C:\USERS\HANS\DROPBOX\DOCUMENTS\VISUAL STUDIO 2015\PROJECTS\GLTUTORIAL5\PACKAGES\SDL2.2.0.5\BUILD\NATIVE\INCLUDE\SDL_JOYSTICK.H
C:\USERS\HANS\DROPBOX\DOCUMENTS\VISUAL STUDIO 2015\PROJECTS\GLTUTORIAL5\PACKAGES\SDL2.2.0.5\BUILD\NATIVE\INCLUDE\SDL_GAMECONTROLLER.H
C:\USERS\HANS\DROPBOX\DOCUMENTS\VISUAL STUDIO 2015\PROJECTS\GLTUTORIAL5\PACKAGES\SDL2.2.0.5\BUILD\NATIVE\INCLUDE\SDL_QUIT.H
C:\USERS\HANS\DROPBOX\DOCUMENTS\VISUAL STUDIO 2015\PROJECTS\GLTUTORIAL5\PACKAGES\SDL2.2.0.5\BUILD\NATIVE\INCLUDE\SDL_GESTURE.H
C:\USERS\HANS\DROPBOX\DOCUMENTS\VISUAL STUDIO 2015\PROJECTS\GLTUTORIAL5\PACKAGES\SDL2.2.0.5\BUILD\NATIVE\INCLUDE\SDL_TOUCH.H
C:\USERS\HANS\DROPBOX\DOCUMENTS\VISUAL STUDIO 2015\PROJECTS\GLTUTORIAL5\PACKAGES\SDL2.2.0.5\BUILD\NATIVE\INCLUDE\SDL_FILESYSTEM.H
C:\USERS\HANS\DROPBOX\DOCUMENTS\VISUAL STUDIO 2015\PROJECTS\GLTUTORIAL5\PACKAGES\SDL2.2.0.5\BUILD\NATIVE\INCLUDE\SDL_HAPTIC.H
C:\USERS\HANS\DROPBOX\DOCUMENTS\VISUAL STUDIO 2015\PROJECTS\GLTUTORIAL5\PACKAGES\SDL2.2.0.5\BUILD\NATIVE\INCLUDE\SDL_HINTS.H
C:\USERS\HANS\DROPBOX\DOCUMENTS\VISUAL STUDIO 2015\PROJECTS\GLTUTORIAL5\PACKAGES\SDL2.2.0.5\BUILD\NATIVE\INCLUDE\SDL_LOADSO.H
C:\USERS\HANS\DROPBOX\DOCUMENTS\VISUAL STUDIO 2015\PROJECTS\GLTUTORIAL5\PACKAGES\SDL2.2.0.5\BUILD\NATIVE\INCLUDE\SDL_LOG.H
C:\USERS\HANS\DROPBOX\DOCUMENTS\VISUAL STUDIO 2015\PROJECTS\GLTUTORIAL5\PACKAGES\SDL2.2.0.5\BUILD\NATIVE\INCLUDE\SDL_MESSAGEBOX.H
C:\USERS\HANS\DROPBOX\DOCUMENTS\VISUAL STUDIO 2015\PROJECTS\GLTUTORIAL5\PACKAGES\SDL2.2.0.5\BUILD\NATIVE\INCLUDE\SDL_POWER.H
C:\USERS\HANS\DROPBOX\DOCUMENTS\VISUAL STUDIO 2015\PROJECTS\GLTUTORIAL5\PACKAGES\SDL2.2.0.5\BUILD\NATIVE\INCLUDE\SDL_RENDER.H
C:\USERS\HANS\DROPBOX\DOCUMENTS\VISUAL STUDIO 2015\PROJECTS\GLTUTORIAL5\PACKAGES\SDL2.2.0.5\BUILD\NATIVE\INCLUDE\SDL_SYSTEM.H
C:\USERS\HANS\DROPBOX\DOCUMENTS\VISUAL STUDIO 2015\PROJECTS\GLTUTORIAL5\PACKAGES\SDL2.2.0.5\BUILD\NATIVE\INCLUDE\SDL_TIMER.H
C:\USERS\HANS\DROPBOX\DOCUMENTS\VISUAL STUDIO 2015\PROJECTS\GLTUTORIAL5\PACKAGES\SDL2.2.0.5\BUILD\NATIVE\INCLUDE\SDL_VERSION.H
C:\USERS\HANS\DROPBOX\DOCUMENTS\VISUAL STUDIO 2015\PROJECTS\GLTUTORIAL5\PACKAGES\SDL2.2.0.5\BUILD\NATIVE\INCLUDE\SDL_OPENGLES2.H
C:\USERS\HANS\DROPBOX\DOCUMENTS\VISUAL STUDIO 2015\PROJECTS\GLTUTORIAL5\PACKAGES\SDL2.2.0.5\BUILD\NATIVE\INCLUDE\SDL_OPENGLES2_KHRPLATFORM.H
C:\USERS\HANS\DROPBOX\DOCUMENTS\VISUAL STUDIO 2015\PROJECTS\GLTUTORIAL5\PACKAGES\SDL2.2.0.5\BUILD\NATIVE\INCLUDE\SDL_OPENGLES2_GL2PLATFORM.H
C:\USERS\HANS\DROPBOX\DOCUMENTS\VISUAL STUDIO 2015\PROJECTS\GLTUTORIAL5\PACKAGES\SDL2.2.0.5\BUILD\NATIVE\INCLUDE\SDL_OPENGLES2_GL2.H
C:\USERS\HANS\DROPBOX\DOCUMENTS\VISUAL STUDIO 2015\PROJECTS\GLTUTORIAL5\PACKAGES\SDL2.2.0.5\BUILD\NATIVE\INCLUDE\SDL_OPENGLES2_GL2EXT.H
C:\USERS\HANS\DROPBOX\DOCUMENTS\VISUAL STUDIO 2015\PROJECTS\GLTUTORIAL5\GLTUTORIAL5\ANGLE\INCLUDE\GLES3\GL3.H
C:\USERS\HANS\DROPBOX\DOCUMENTS\VISUAL STUDIO 2015\PROJECTS\GLTUTORIAL5\GLTUTORIAL5\ANGLE\INCLUDE\GLES3\GL3PLATFORM.H
C:\USERS\HANS\DROPBOX\DOCUMENTS\VISUAL STUDIO 2015\PROJECTS\GLTUTORIAL5\GLTUTORIAL5\ANGLE\INCLUDE\KHR\KHRPLATFORM.H
C:\PROGRAM FILES (X86)\MICROSOFT VISUAL STUDIO 14.0\VC\BIN\VCTIP.EXE
C:\USERS\HANS\DROPBOX\DOCUMENTS\VISUAL STUDIO 2015\PROJECTS\GLTUTORIAL5\PACKAGES\SDL2.V140.2.0.4\BUILD\NATIVE\INCLUDE\SDL.H
C:\USERS\HANS\DROPBOX\DOCUMENTS\VISUAL STUDIO 2015\PROJECTS\GLTUTORIAL5\PACKAGES\SDL2.V140.2.0.4\BUILD\NATIVE\INCLUDE\SDL_MAIN.H
C:\USERS\HANS\DROPBOX\DOCUMENTS\VISUAL STUDIO 2015\PROJECTS\GLTUTORIAL5\PACKAGES\SDL2.V140.2.0.4\BUILD\NATIVE\INCLUDE\SDL_STDINC.H
C:\USERS\HANS\DROPBOX\DOCUMENTS\VISUAL STUDIO 2015\PROJECTS\GLTUTORIAL5\PACKAGES\SDL2.V140.2.0.4\BUILD\NATIVE\INCLUDE\SDL_CONFIG.H
C:\USERS\HANS\DROPBOX\DOCUMENTS\VISUAL STUDIO 2015\PROJECTS\GLTUTORIAL5\PACKAGES\SDL2.V140.2.0.4\BUILD\NATIVE\INCLUDE\SDL_PLATFORM.H
C:\USERS\HANS\DROPBOX\DOCUMENTS\VISUAL STUDIO 2015\PROJECTS\GLTUTORIAL5\PACKAGES\SDL2.V140.2.0.4\BUILD\NATIVE\INCLUDE\BEGIN_CODE.H
C:\USERS\HANS\DROPBOX\DOCUMENTS\VISUAL STUDIO 2015\PROJECTS\GLTUTORIAL5\PACKAGES\SDL2.V140.2.0.4\BUILD\NATIVE\INCLUDE\CLOSE_CODE.H
C:\USERS\HANS\DROPBOX\DOCUMENTS\VISUAL STUDIO 2015\PROJECTS\GLTUTORIAL5\PACKAGES\SDL2.V140.2.0.4\BUILD\NATIVE\INCLUDE\SDL_CONFIG_WINDOWS.H
C:\USERS\HANS\DROPBOX\DOCUMENTS\VISUAL STUDIO 2015\PROJECTS\GLTUTORIAL5\PACKAGES\SDL2.V140.2.0.4\BUILD\NATIVE\INCLUDE\SDL_ASSERT.H
C:\USERS\HANS\DROPBOX\DOCUMENTS\VISUAL STUDIO 2015\PROJECTS\GLTUTORIAL5\PACKAGES\SDL2.V140.2.0.4\BUILD\NATIVE\INCLUDE\SDL_ATOMIC.H
C:\USERS\HANS\DROPBOX\DOCUMENTS\VISUAL STUDIO 2015\PROJECTS\GLTUTORIAL5\PACKAGES\SDL2.V140.2.0.4\BUILD\NATIVE\INCLUDE\SDL_AUDIO.H
C:\USERS\HANS\DROPBOX\DOCUMENTS\VISUAL STUDIO 2015\PROJECTS\GLTUTORIAL5\PACKAGES\SDL2.V140.2.0.4\BUILD\NATIVE\INCLUDE\SDL_ERROR.H
C:\USERS\HANS\DROPBOX\DOCUMENTS\VISUAL STUDIO 2015\PROJECTS\GLTUTORIAL5\PACKAGES\SDL2.V140.2.0.4\BUILD\NATIVE\INCLUDE\SDL_ENDIAN.H
C:\USERS\HANS\DROPBOX\DOCUMENTS\VISUAL STUDIO 2015\PROJECTS\GLTUTORIAL5\PACKAGES\SDL2.V140.2.0.4\BUILD\NATIVE\INCLUDE\SDL_MUTEX.H
C:\USERS\HANS\DROPBOX\DOCUMENTS\VISUAL STUDIO 2015\PROJECTS\GLTUTORIAL5\PACKAGES\SDL2.V140.2.0.4\BUILD\NATIVE\INCLUDE\SDL_THREAD.H
C:\USERS\HANS\DROPBOX\DOCUMENTS\VISUAL STUDIO 2015\PROJECTS\GLTUTORIAL5\PACKAGES\SDL2.V140.2.0.4\BUILD\NATIVE\INCLUDE\SDL_RWOPS.H
C:\USERS\HANS\DROPBOX\DOCUMENTS\VISUAL STUDIO 2015\PROJECTS\GLTUTORIAL5\PACKAGES\SDL2.V140.2.0.4\BUILD\NATIVE\INCLUDE\SDL_CLIPBOARD.H
C:\USERS\HANS\DROPBOX\DOCUMENTS\VISUAL STUDIO 2015\PROJECTS\GLTUTORIAL5\PACKAGES\SDL2.V140.2.0.4\BUILD\NATIVE\INCLUDE\SDL_CPUINFO.H
C:\USERS\HANS\DROPBOX\DOCUMENTS\VISUAL STUDIO 2015\PROJECTS\GLTUTORIAL5\PACKAGES\SDL2.V140.2.0.4\BUILD\NATIVE\INCLUDE\SDL_EVENTS.H
C:\USERS\HANS\DROPBOX\DOCUMENTS\VISUAL STUDIO 2015\PROJECTS\GLTUTORIAL5\PACKAGES\SDL2.V140.2.0.4\BUILD\NATIVE\INCLUDE\SDL_VIDEO.H
C:\USERS\HANS\DROPBOX\DOCUMENTS\VISUAL STUDIO 2015\PROJECTS\GLTUTORIAL5\PACKAGES\SDL2.V140.2.0.4\BUILD\NATIVE\INCLUDE\SDL_PIXELS.H
C:\USERS\HANS\DROPBOX\DOCUMENTS\VISUAL STUDIO 2015\PROJECTS\GLTUTORIAL5\PACKAGES\SDL2.V140.2.0.4\BUILD\NATIVE\INCLUDE\SDL_RECT.H
C:\USERS\HANS\DROPBOX\DOCUMENTS\VISUAL STUDIO 2015\PROJECTS\GLTUTORIAL5\PACKAGES\SDL2.V140.2.0.4\BUILD\NATIVE\INCLUDE\SDL_SURFACE.H
C:\USERS\HANS\DROPBOX\DOCUMENTS\VISUAL STUDIO 2015\PROJECTS\GLTUTORIAL5\PACKAGES\SDL2.V140.2.0.4\BUILD\NATIVE\INCLUDE\SDL_BLENDMODE.H
C:\USERS\HANS\DROPBOX\DOCUMENTS\VISUAL STUDIO 2015\PROJECTS\GLTUTORIAL5\PACKAGES\SDL2.V140.2.0.4\BUILD\NATIVE\INCLUDE\SDL_KEYBOARD.H
C:\USERS\HANS\DROPBOX\DOCUMENTS\VISUAL STUDIO 2015\PROJECTS\GLTUTORIAL5\PACKAGES\SDL2.V140.2.0.4\BUILD\NATIVE\INCLUDE\SDL_KEYCODE.H
C:\USERS\HANS\DROPBOX\DOCUMENTS\VISUAL STUDIO 2015\PROJECTS\GLTUTORIAL5\PACKAGES\SDL2.V140.2.0.4\BUILD\NATIVE\INCLUDE\SDL_SCANCODE.H
C:\USERS\HANS\DROPBOX\DOCUMENTS\VISUAL STUDIO 2015\PROJECTS\GLTUTORIAL5\PACKAGES\SDL2.V140.2.0.4\BUILD\NATIVE\INCLUDE\SDL_MOUSE.H
C:\USERS\HANS\DROPBOX\DOCUMENTS\VISUAL STUDIO 2015\PROJECTS\GLTUTORIAL5\PACKAGES\SDL2.V140.2.0.4\BUILD\NATIVE\INCLUDE\SDL_JOYSTICK.H
C:\USERS\HANS\DROPBOX\DOCUMENTS\VISUAL STUDIO 2015\PROJECTS\GLTUTORIAL5\PACKAGES\SDL2.V140.2.0.4\BUILD\NATIVE\INCLUDE\SDL_GAMECONTROLLER.H
C:\USERS\HANS\DROPBOX\DOCUMENTS\VISUAL STUDIO 2015\PROJECTS\GLTUTORIAL5\PACKAGES\SDL2.V140.2.0.4\BUILD\NATIVE\INCLUDE\SDL_QUIT.H
C:\USERS\HANS\DROPBOX\DOCUMENTS\VISUAL STUDIO 2015\PROJECTS\GLTUTORIAL5\PACKAGES\SDL2.V140.2.0.4\BUILD\NATIVE\INCLUDE\SDL_GESTURE.H
C:\USERS\HANS\DROPBOX\DOCUMENTS\VISUAL STUDIO 2015\PROJECTS\GLTUTORIAL5\PACKAGES\SDL2.V140.2.0.4\BUILD\NATIVE\INCLUDE\SDL_TOUCH.H
C:\USERS\HANS\DROPBOX\DOCUMENTS\VISUAL STUDIO 2015\PROJECTS\GLTUTORIAL5\PACKAGES\SDL2.V140.2.0.4\BUILD\NATIVE\INCLUDE\SDL_FILESYSTEM.H
C:\USERS\HANS\DROPBOX\DOCUMENTS\VISUAL STUDIO 2015\PROJECTS\GLTUTORIAL5\PACKAGES\SDL2.V140.2.0.4\BUILD\NATIVE\INCLUDE\SDL_HAPTIC.H
C:\USERS\HANS\DROPBOX\DOCUMENTS\VISUAL STUDIO 2015\PROJECTS\GLTUTORIAL5\PACKAGES\SDL2.V140.2.0.4\BUILD\NATIVE\INCLUDE\SDL_HINTS.H
C:\USERS\HANS\DROPBOX\DOCUMENTS\VISUAL STUDIO 2015\PROJECTS\GLTUTORIAL5\PACKAGES\SDL2.V140.2.0.4\BUILD\NATIVE\INCLUDE\SDL_LOADSO.H
C:\USERS\HANS\DROPBOX\DOCUMENTS\VISUAL STUDIO 2015\PROJECTS\GLTUTORIAL5\PACKAGES\SDL2.V140.2.0.4\BUILD\NATIVE\INCLUDE\SDL_LOG.H
C:\USERS\HANS\DROPBOX\DOCUMENTS\VISUAL STUDIO 2015\PROJECTS\GLTUTORIAL5\PACKAGES\SDL2.V140.2.0.4\BUILD\NATIVE\INCLUDE\SDL_MESSAGEBOX.H
C:\USERS\HANS\DROPBOX\DOCUMENTS\VISUAL STUDIO 2015\PROJECTS\GLTUTORIAL5\PACKAGES\SDL2.V140.2.0.4\BUILD\NATIVE\INCLUDE\SDL_POWER.H
C:\USERS\HANS\DROPBOX\DOCUMENTS\VISUAL STUDIO 2015\PROJECTS\GLTUTORIAL5\PACKAGES\SDL2.V140.2.0.4\BUILD\NATIVE\INCLUDE\SDL_RENDER.H
C:\USERS\HANS\DROPBOX\DOCUMENTS\VISUAL STUDIO 2015\PROJECTS\GLTUTORIAL5\PACKAGES\SDL2.V140.2.0.4\BUILD\NATIVE\INCLUDE\SDL_SYSTEM.H
C:\USERS\HANS\DROPBOX\DOCUMENTS\VISUAL STUDIO 2015\PROJECTS\GLTUTORIAL5\PACKAGES\SDL2.V140.2.0.4\BUILD\NATIVE\INCLUDE\SDL_TIMER.H
C:\USERS\HANS\DROPBOX\DOCUMENTS\VISUAL STUDIO 2015\PROJECTS\GLTUTORIAL5\PACKAGES\SDL2.V140.2.0.4\BUILD\NATIVE\INCLUDE\SDL_VERSION.H
C:\USERS\HANS\DROPBOX\DOCUMENTS\VISUAL STUDIO 2015\PROJECTS\GLTUTORIAL5\PACKAGES\SDL2.V140.2.0.4\BUILD\NATIVE\INCLUDE\SDL_OPENGLES2.H
C:\USERS\HANS\DROPBOX\DOCUMENTS\VISUAL STUDIO 2015\PROJECTS\GLTUTORIAL5\PACKAGES\SDL2.V140.2.0.4\BUILD\NATIVE\INCLUDE\SDL_OPENGLES2_KHRPLATFORM.H
C:\USERS\HANS\DROPBOX\DOCUMENTS\VISUAL STUDIO 2015\PROJECTS\GLTUTORIAL5\PACKAGES\SDL2.V140.2.0.4\BUILD\NATIVE\INCLUDE\SDL_OPENGLES2_GL2PLATFORM.H
C:\USERS\HANS\DROPBOX\DOCUMENTS\VISUAL STUDIO 2015\PROJECTS\GLTUTORIAL5\PACKAGES\SDL2.V140.2.0.4\BUILD\NATIVE\INCLUDE\SDL_OPENGLES2_GL2.H
C:\USERS\HANS\DROPBOX\DOCUMENTS\VISUAL STUDIO 2015\PROJECTS\GLTUTORIAL5\PACKAGES\SDL2.V140.2.0.4\BUILD\NATIVE\INCLUDE\SDL_OPENGLES2_GL2EXT.H
C:\WINDOWS\SYSTEM32\TZRES.DLL
C:\WINDOWS\GLOBALIZATION\SORTING\SORTDEFAULT.NLS
C:\PROGRAM FILES (X86)\MICROSOFT VISUAL STUDIO 14.0\VC\BIN\1033\CLUI.DLL
C:\USERS\HANS\DROPBOX\DOCUMENTS\VISUAL STUDIO 2015\PROJECTS\GLTUTORIAL5\PACKAGES\GLMATHEMATICS.0.9.5.4\BUILD\NATIVE\INCLUDE\GLM\GLM.HPP
C:\USERS\HANS\DROPBOX\DOCUMENTS\VISUAL STUDIO 2015\PROJECTS\GLTUTORIAL5\PACKAGES\GLMATHEMATICS.0.9.5.4\BUILD\NATIVE\INCLUDE\GLM\DETAIL\_FIXES.HPP
C:\PROGRAM FILES (X86)\MICROSOFT VISUAL STUDIO 14.0\VC\INCLUDE\CMATH
C:\PROGRAM FILES (X86)\MICROSOFT VISUAL STUDIO 14.0\VC\INCLUDE\YVALS.H
C:\PROGRAM FILES (X86)\MICROSOFT VISUAL STUDIO 14.0\VC\INCLUDE\XKEYCHECK.H
C:\PROGRAM FILES (X86)\MICROSOFT VISUAL STUDIO 14.0\VC\INCLUDE\CRTDEFS.H
C:\PROGRAM FILES (X86)\MICROSOFT VISUAL STUDIO 14.0\VC\INCLUDE\USE_ANSI.H
C:\PROGRAM FILES (X86)\MICROSOFT VISUAL STUDIO 14.0\VC\INCLUDE\XTGMATH.H
C:\PROGRAM FILES (X86)\MICROSOFT VISUAL STUDIO 14.0\VC\INCLUDE\XTR1COMMON
C:\PROGRAM FILES (X86)\MICROSOFT VISUAL STUDIO 14.0\VC\INCLUDE\CSTDLIB
C:\PROGRAM FILES (X86)\WINDOWS KITS\10\INCLUDE\10.0.10240.0\UCRT\STDLIB.H
C:\PROGRAM FILES (X86)\WINDOWS KITS\10\INCLUDE\10.0.10240.0\UCRT\CORECRT_SEARCH.H
C:\PROGRAM FILES (X86)\WINDOWS KITS\10\INCLUDE\10.0.10240.0\UCRT\CORECRT_WSTDLIB.H
C:\PROGRAM FILES (X86)\MICROSOFT VISUAL STUDIO 14.0\VC\INCLUDE\LIMITS.H
C:\PROGRAM FILES (X86)\MICROSOFT VISUAL STUDIO 14.0\VC\INCLUDE\CLIMITS
C:\PROGRAM FILES (X86)\MICROSOFT VISUAL STUDIO 14.0\VC\INCLUDE\CFLOAT
C:\PROGRAM FILES (X86)\WINDOWS KITS\10\INCLUDE\10.0.10240.0\UCRT\FLOAT.H
C:\PROGRAM FILES (X86)\MICROSOFT VISUAL STUDIO 14.0\VC\INCLUDE\LIMITS
C:\PROGRAM FILES (X86)\MICROSOFT VISUAL STUDIO 14.0\VC\INCLUDE\YMATH.H
C:\PROGRAM FILES (X86)\MICROSOFT VISUAL STUDIO 14.0\VC\INCLUDE\CWCHAR
C:\PROGRAM FILES (X86)\WINDOWS KITS\10\INCLUDE\10.0.10240.0\UCRT\WCHAR.H
C:\PROGRAM FILES (X86)\WINDOWS KITS\10\INCLUDE\10.0.10240.0\UCRT\CORECRT_MEMCPY_S.H
C:\PROGRAM FILES (X86)\WINDOWS KITS\10\INCLUDE\10.0.10240.0\UCRT\ERRNO.H
C:\PROGRAM FILES (X86)\MICROSOFT VISUAL STUDIO 14.0\VC\INCLUDE\VCRUNTIME_STRING.H
C:\PROGRAM FILES (X86)\WINDOWS KITS\10\INCLUDE\10.0.10240.0\UCRT\CORECRT_WCONIO.H
C:\PROGRAM FILES (X86)\WINDOWS KITS\10\INCLUDE\10.0.10240.0\UCRT\CORECRT_STDIO_CONFIG.H
C:\PROGRAM FILES (X86)\WINDOWS KITS\10\INCLUDE\10.0.10240.0\UCRT\CORECRT_WCTYPE.H
C:\PROGRAM FILES (X86)\WINDOWS KITS\10\INCLUDE\10.0.10240.0\UCRT\CORECRT_WDIRECT.H
C:\PROGRAM FILES (X86)\WINDOWS KITS\10\INCLUDE\10.0.10240.0\UCRT\CORECRT_WIO.H
C:\PROGRAM FILES (X86)\WINDOWS KITS\10\INCLUDE\10.0.10240.0\UCRT\CORECRT_SHARE.H
C:\PROGRAM FILES (X86)\WINDOWS KITS\10\INCLUDE\10.0.10240.0\UCRT\CORECRT_WSTDIO.H
C:\PROGRAM FILES (X86)\WINDOWS KITS\10\INCLUDE\10.0.10240.0\UCRT\CORECRT_WSTRING.H
C:\PROGRAM FILES (X86)\WINDOWS KITS\10\INCLUDE\10.0.10240.0\UCRT\CORECRT_WTIME.H
C:\PROGRAM FILES (X86)\WINDOWS KITS\10\INCLUDE\10.0.10240.0\UCRT\SYS\STAT.H
C:\PROGRAM FILES (X86)\WINDOWS KITS\10\INCLUDE\10.0.10240.0\UCRT\SYS\TYPES.H
C:\PROGRAM FILES (X86)\MICROSOFT VISUAL STUDIO 14.0\VC\INCLUDE\XSTDDEF
C:\PROGRAM FILES (X86)\MICROSOFT VISUAL STUDIO 14.0\VC\INCLUDE\CSTDDEF
C:\PROGRAM FILES (X86)\MICROSOFT VISUAL STUDIO 14.0\VC\INCLUDE\INITIALIZER_LIST
C:\PROGRAM FILES (X86)\MICROSOFT VISUAL STUDIO 14.0\VC\INCLUDE\CASSERT
C:\PROGRAM FILES (X86)\WINDOWS KITS\10\INCLUDE\10.0.10240.0\UCRT\ASSERT.H
C:\USERS\HANS\DROPBOX\DOCUMENTS\VISUAL STUDIO 2015\PROJECTS\GLTUTORIAL5\PACKAGES\GLMATHEMATICS.0.9.5.4\BUILD\NATIVE\INCLUDE\GLM\FWD.HPP
C:\USERS\HANS\DROPBOX\DOCUMENTS\VISUAL STUDIO 2015\PROJECTS\GLTUTORIAL5\PACKAGES\GLMATHEMATICS.0.9.5.4\BUILD\NATIVE\INCLUDE\GLM\DETAIL\TYPE_INT.HPP
C:\USERS\HANS\DROPBOX\DOCUMENTS\VISUAL STUDIO 2015\PROJECTS\GLTUTORIAL5\PACKAGES\GLMATHEMATICS.0.9.5.4\BUILD\NATIVE\INCLUDE\GLM\DETAIL\SETUP.HPP
C:\USERS\HANS\DROPBOX\DOCUMENTS\VISUAL STUDIO 2015\PROJECTS\GLTUTORIAL5\PACKAGES\GLMATHEMATICS.0.9.5.4\BUILD\NATIVE\INCLUDE\GLM\SIMD\PLATFORM.H
C:\PROGRAM FILES (X86)\MICROSOFT VISUAL STUDIO 14.0\VC\INCLUDE\TYPE_TRAITS
C:\PROGRAM FILES (X86)\MICROSOFT VISUAL STUDIO 14.0\VC\INCLUDE\CSTDINT
C:\PROGRAM FILES (X86)\MICROSOFT VISUAL STUDIO 14.0\VC\INCLUDE\STDINT.H
C:\USERS\HANS\DROPBOX\DOCUMENTS\VISUAL STUDIO 2015\PROJECTS\GLTUTORIAL5\PACKAGES\GLMATHEMATICS.0.9.5.4\BUILD\NATIVE\INCLUDE\GLM\DETAIL\TYPE_FLOAT.HPP
C:\USERS\HANS\DROPBOX\DOCUMENTS\VISUAL STUDIO 2015\PROJECTS\GLTUTORIAL5\PACKAGES\GLMATHEMATICS.0.9.5.4\BUILD\NATIVE\INCLUDE\GLM\DETAIL\TYPE_VEC.HPP
C:\USERS\HANS\DROPBOX\DOCUMENTS\VISUAL STUDIO 2015\PROJECTS\GLTUTORIAL5\PACKAGES\GLMATHEMATICS.0.9.5.4\BUILD\NATIVE\INCLUDE\GLM\DETAIL\PRECISION.HPP
C:\USERS\HANS\DROPBOX\DOCUMENTS\VISUAL STUDIO 2015\PROJECTS\GLTUTORIAL5\PACKAGES\GLMATHEMATICS.0.9.5.4\BUILD\NATIVE\INCLUDE\GLM\DETAIL\TYPE_MAT.HPP
C:\USERS\HANS\DROPBOX\DOCUMENTS\VISUAL STUDIO 2015\PROJECTS\GLTUTORIAL5\PACKAGES\GLMATHEMATICS.0.9.5.4\BUILD\NATIVE\INCLUDE\GLM\VEC2.HPP
C:\USERS\HANS\DROPBOX\DOCUMENTS\VISUAL STUDIO 2015\PROJECTS\GLTUTORIAL5\PACKAGES\GLMATHEMATICS.0.9.5.4\BUILD\NATIVE\INCLUDE\GLM\DETAIL\TYPE_VEC2.HPP
C:\USERS\HANS\DROPBOX\DOCUMENTS\VISUAL STUDIO 2015\PROJECTS\GLTUTORIAL5\PACKAGES\GLMATHEMATICS.0.9.5.4\BUILD\NATIVE\INCLUDE\GLM\DETAIL\TYPE_VEC2.INL
C:\USERS\HANS\DROPBOX\DOCUMENTS\VISUAL STUDIO 2015\PROJECTS\GLTUTORIAL5\PACKAGES\GLMATHEMATICS.0.9.5.4\BUILD\NATIVE\INCLUDE\GLM\VEC3.HPP
C:\USERS\HANS\DROPBOX\DOCUMENTS\VISUAL STUDIO 2015\PROJECTS\GLTUTORIAL5\PACKAGES\GLMATHEMATICS.0.9.5.4\BUILD\NATIVE\INCLUDE\GLM\DETAIL\TYPE_VEC3.HPP
C:\USERS\HANS\DROPBOX\DOCUMENTS\VISUAL STUDIO 2015\PROJECTS\GLTUTORIAL5\PACKAGES\GLMATHEMATICS.0.9.5.4\BUILD\NATIVE\INCLUDE\GLM\DETAIL\TYPE_VEC3.INL
C:\USERS\HANS\DROPBOX\DOCUMENTS\VISUAL STUDIO 2015\PROJECTS\GLTUTORIAL5\PACKAGES\GLMATHEMATICS.0.9.5.4\BUILD\NATIVE\INCLUDE\GLM\VEC4.HPP
C:\USERS\HANS\DROPBOX\DOCUMENTS\VISUAL STUDIO 2015\PROJECTS\GLTUTORIAL5\PACKAGES\GLMATHEMATICS.0.9.5.4\BUILD\NATIVE\INCLUDE\GLM\DETAIL\TYPE_VEC4.HPP
C:\USERS\HANS\DROPBOX\DOCUMENTS\VISUAL STUDIO 2015\PROJECTS\GLTUTORIAL5\PACKAGES\GLMATHEMATICS.0.9.5.4\BUILD\NATIVE\INCLUDE\GLM\DETAIL\TYPE_VEC4.INL
C:\USERS\HANS\DROPBOX\DOCUMENTS\VISUAL STUDIO 2015\PROJECTS\GLTUTORIAL5\PACKAGES\GLMATHEMATICS.0.9.5.4\BUILD\NATIVE\INCLUDE\GLM\DETAIL\TYPE_VEC4_SIMD.INL
C:\USERS\HANS\DROPBOX\DOCUMENTS\VISUAL STUDIO 2015\PROJECTS\GLTUTORIAL5\PACKAGES\GLMATHEMATICS.0.9.5.4\BUILD\NATIVE\INCLUDE\GLM\MAT2X2.HPP
C:\USERS\HANS\DROPBOX\DOCUMENTS\VISUAL STUDIO 2015\PROJECTS\GLTUTORIAL5\PACKAGES\GLMATHEMATICS.0.9.5.4\BUILD\NATIVE\INCLUDE\GLM\DETAIL\TYPE_MAT2X2.HPP
C:\USERS\HANS\DROPBOX\DOCUMENTS\VISUAL STUDIO 2015\PROJECTS\GLTUTORIAL5\PACKAGES\GLMATHEMATICS.0.9.5.4\BUILD\NATIVE\INCLUDE\GLM\DETAIL\TYPE_MAT2X2.INL
C:\USERS\HANS\DROPBOX\DOCUMENTS\VISUAL STUDIO 2015\PROJECTS\GLTUTORIAL5\PACKAGES\GLMATHEMATICS.0.9.5.4\BUILD\NATIVE\INCLUDE\GLM\DETAIL\FUNC_MATRIX.HPP
C:\USERS\HANS\DROPBOX\DOCUMENTS\VISUAL STUDIO 2015\PROJECTS\GLTUTORIAL5\PACKAGES\GLMATHEMATICS.0.9.5.4\BUILD\NATIVE\INCLUDE\GLM\MAT2X3.HPP
C:\USERS\HANS\DROPBOX\DOCUMENTS\VISUAL STUDIO 2015\PROJECTS\GLTUTORIAL5\PACKAGES\GLMATHEMATICS.0.9.5.4\BUILD\NATIVE\INCLUDE\GLM\DETAIL\TYPE_MAT2X3.HPP
C:\USERS\HANS\DROPBOX\DOCUMENTS\VISUAL STUDIO 2015\PROJECTS\GLTUTORIAL5\PACKAGES\GLMATHEMATICS.0.9.5.4\BUILD\NATIVE\INCLUDE\GLM\DETAIL\TYPE_MAT2X3.INL
C:\USERS\HANS\DROPBOX\DOCUMENTS\VISUAL STUDIO 2015\PROJECTS\GLTUTORIAL5\PACKAGES\GLMATHEMATICS.0.9.5.4\BUILD\NATIVE\INCLUDE\GLM\MAT2X4.HPP
C:\USERS\HANS\DROPBOX\DOCUMENTS\VISUAL STUDIO 2015\PROJECTS\GLTUTORIAL5\PACKAGES\GLMATHEMATICS.0.9.5.4\BUILD\NATIVE\INCLUDE\GLM\DETAIL\TYPE_MAT2X4.HPP
C:\USERS\HANS\DROPBOX\DOCUMENTS\VISUAL STUDIO 2015\PROJECTS\GLTUTORIAL5\PACKAGES\GLMATHEMATICS.0.9.5.4\BUILD\NATIVE\INCLUDE\GLM\DETAIL\TYPE_MAT2X4.INL
C:\USERS\HANS\DROPBOX\DOCUMENTS\VISUAL STUDIO 2015\PROJECTS\GLTUTORIAL5\PACKAGES\GLMATHEMATICS.0.9.5.4\BUILD\NATIVE\INCLUDE\GLM\MAT3X2.HPP
C:\USERS\HANS\DROPBOX\DOCUMENTS\VISUAL STUDIO 2015\PROJECTS\GLTUTORIAL5\PACKAGES\GLMATHEMATICS.0.9.5.4\BUILD\NATIVE\INCLUDE\GLM\DETAIL\TYPE_MAT3X2.HPP
C:\USERS\HANS\DROPBOX\DOCUMENTS\VISUAL STUDIO 2015\PROJECTS\GLTUTORIAL5\PACKAGES\GLMATHEMATICS.0.9.5.4\BUILD\NATIVE\INCLUDE\GLM\DETAIL\TYPE_MAT3X2.INL
C:\USERS\HANS\DROPBOX\DOCUMENTS\VISUAL STUDIO 2015\PROJECTS\GLTUTORIAL5\PACKAGES\GLMATHEMATICS.0.9.5.4\BUILD\NATIVE\INCLUDE\GLM\MAT3X3.HPP
C:\USERS\HANS\DROPBOX\DOCUMENTS\VISUAL STUDIO 2015\PROJECTS\GLTUTORIAL5\PACKAGES\GLMATHEMATICS.0.9.5.4\BUILD\NATIVE\INCLUDE\GLM\DETAIL\TYPE_MAT3X3.HPP
C:\USERS\HANS\DROPBOX\DOCUMENTS\VISUAL STUDIO 2015\PROJECTS\GLTUTORIAL5\PACKAGES\GLMATHEMATICS.0.9.5.4\BUILD\NATIVE\INCLUDE\GLM\DETAIL\TYPE_MAT3X3.INL
C:\USERS\HANS\DROPBOX\DOCUMENTS\VISUAL STUDIO 2015\PROJECTS\GLTUTORIAL5\PACKAGES\GLMATHEMATICS.0.9.5.4\BUILD\NATIVE\INCLUDE\GLM\MAT3X4.HPP
C:\USERS\HANS\DROPBOX\DOCUMENTS\VISUAL STUDIO 2015\PROJECTS\GLTUTORIAL5\PACKAGES\GLMATHEMATICS.0.9.5.4\BUILD\NATIVE\INCLUDE\GLM\DETAIL\TYPE_MAT3X4.HPP
C:\USERS\HANS\DROPBOX\DOCUMENTS\VISUAL STUDIO 2015\PROJECTS\GLTUTORIAL5\PACKAGES\GLMATHEMATICS.0.9.5.4\BUILD\NATIVE\INCLUDE\GLM\DETAIL\TYPE_MAT3X4.INL
C:\USERS\HANS\DROPBOX\DOCUMENTS\VISUAL STUDIO 2015\PROJECTS\GLTUTORIAL5\PACKAGES\GLMATHEMATICS.0.9.5.4\BUILD\NATIVE\INCLUDE\GLM\MAT4X2.HPP
C:\USERS\HANS\DROPBOX\DOCUMENTS\VISUAL STUDIO 2015\PROJECTS\GLTUTORIAL5\PACKAGES\GLMATHEMATICS.0.9.5.4\BUILD\NATIVE\INCLUDE\GLM\DETAIL\TYPE_MAT4X2.HPP
C:\USERS\HANS\DROPBOX\DOCUMENTS\VISUAL STUDIO 2015\PROJECTS\GLTUTORIAL5\PACKAGES\GLMATHEMATICS.0.9.5.4\BUILD\NATIVE\INCLUDE\GLM\DETAIL\TYPE_MAT4X2.INL
C:\USERS\HANS\DROPBOX\DOCUMENTS\VISUAL STUDIO 2015\PROJECTS\GLTUTORIAL5\PACKAGES\GLMATHEMATICS.0.9.5.4\BUILD\NATIVE\INCLUDE\GLM\MAT4X3.HPP
C:\USERS\HANS\DROPBOX\DOCUMENTS\VISUAL STUDIO 2015\PROJECTS\GLTUTORIAL5\PACKAGES\GLMATHEMATICS.0.9.5.4\BUILD\NATIVE\INCLUDE\GLM\DETAIL\TYPE_MAT4X3.HPP
C:\USERS\HANS\DROPBOX\DOCUMENTS\VISUAL STUDIO 2015\PROJECTS\GLTUTORIAL5\PACKAGES\GLMATHEMATICS.0.9.5.4\BUILD\NATIVE\INCLUDE\GLM\DETAIL\TYPE_MAT4X3.INL
C:\USERS\HANS\DROPBOX\DOCUMENTS\VISUAL STUDIO 2015\PROJECTS\GLTUTORIAL5\PACKAGES\GLMATHEMATICS.0.9.5.4\BUILD\NATIVE\INCLUDE\GLM\MAT4X4.HPP
C:\USERS\HANS\DROPBOX\DOCUMENTS\VISUAL STUDIO 2015\PROJECTS\GLTUTORIAL5\PACKAGES\GLMATHEMATICS.0.9.5.4\BUILD\NATIVE\INCLUDE\GLM\DETAIL\TYPE_MAT4X4.HPP
C:\USERS\HANS\DROPBOX\DOCUMENTS\VISUAL STUDIO 2015\PROJECTS\GLTUTORIAL5\PACKAGES\GLMATHEMATICS.0.9.5.4\BUILD\NATIVE\INCLUDE\GLM\DETAIL\TYPE_MAT4X4.INL
C:\USERS\HANS\DROPBOX\DOCUMENTS\VISUAL STUDIO 2015\PROJECTS\GLTUTORIAL5\PACKAGES\GLMATHEMATICS.0.9.5.4\BUILD\NATIVE\INCLUDE\GLM\DETAIL\TYPE_MAT4X4_SIMD.INL
C:\USERS\HANS\DROPBOX\DOCUMENTS\VISUAL STUDIO 2015\PROJECTS\GLTUTORIAL5\PACKAGES\GLMATHEMATICS.0.9.5.4\BUILD\NATIVE\INCLUDE\GLM\DETAIL\FUNC_MATRIX.INL
C:\USERS\HANS\DROPBOX\DOCUMENTS\VISUAL STUDIO 2015\PROJECTS\GLTUTORIAL5\PACKAGES\GLMATHEMATICS.0.9.5.4\BUILD\NATIVE\INCLUDE\GLM\GEOMETRIC.HPP
C:\USERS\HANS\DROPBOX\DOCUMENTS\VISUAL STUDIO 2015\PROJECTS\GLTUTORIAL5\PACKAGES\GLMATHEMATICS.0.9.5.4\BUILD\NATIVE\INCLUDE\GLM\DETAIL\FUNC_GEOMETRIC.HPP
C:\USERS\HANS\DROPBOX\DOCUMENTS\VISUAL STUDIO 2015\PROJECTS\GLTUTORIAL5\PACKAGES\GLMATHEMATICS.0.9.5.4\BUILD\NATIVE\INCLUDE\GLM\DETAIL\FUNC_GEOMETRIC.INL
C:\USERS\HANS\DROPBOX\DOCUMENTS\VISUAL STUDIO 2015\PROJECTS\GLTUTORIAL5\PACKAGES\GLMATHEMATICS.0.9.5.4\BUILD\NATIVE\INCLUDE\GLM\DETAIL\FUNC_EXPONENTIAL.HPP
C:\USERS\HANS\DROPBOX\DOCUMENTS\VISUAL STUDIO 2015\PROJECTS\GLTUTORIAL5\PACKAGES\GLMATHEMATICS.0.9.5.4\BUILD\NATIVE\INCLUDE\GLM\DETAIL\TYPE_VEC1.HPP
C:\USERS\HANS\DROPBOX\DOCUMENTS\VISUAL STUDIO 2015\PROJECTS\GLTUTORIAL5\PACKAGES\GLMATHEMATICS.0.9.5.4\BUILD\NATIVE\INCLUDE\GLM\DETAIL\TYPE_VEC1.INL
C:\USERS\HANS\DROPBOX\DOCUMENTS\VISUAL STUDIO 2015\PROJECTS\GLTUTORIAL5\PACKAGES\GLMATHEMATICS.0.9.5.4\BUILD\NATIVE\INCLUDE\GLM\DETAIL\FUNC_EXPONENTIAL.INL
C:\USERS\HANS\DROPBOX\DOCUMENTS\VISUAL STUDIO 2015\PROJECTS\GLTUTORIAL5\PACKAGES\GLMATHEMATICS.0.9.5.4\BUILD\NATIVE\INCLUDE\GLM\DETAIL\FUNC_VECTOR_RELATIONAL.HPP
C:\USERS\HANS\DROPBOX\DOCUMENTS\VISUAL STUDIO 2015\PROJECTS\GLTUTORIAL5\PACKAGES\GLMATHEMATICS.0.9.5.4\BUILD\NATIVE\INCLUDE\GLM\DETAIL\FUNC_VECTOR_RELATIONAL.INL
C:\USERS\HANS\DROPBOX\DOCUMENTS\VISUAL STUDIO 2015\PROJECTS\GLTUTORIAL5\PACKAGES\GLMATHEMATICS.0.9.5.4\BUILD\NATIVE\INCLUDE\GLM\DETAIL\FUNC_VECTOR_RELATIONAL_SIMD.INL
C:\USERS\HANS\DROPBOX\DOCUMENTS\VISUAL STUDIO 2015\PROJECTS\GLTUTORIAL5\PACKAGES\GLMATHEMATICS.0.9.5.4\BUILD\NATIVE\INCLUDE\GLM\DETAIL\_VECTORIZE.HPP
C:\USERS\HANS\DROPBOX\DOCUMENTS\VISUAL STUDIO 2015\PROJECTS\GLTUTORIAL5\PACKAGES\GLMATHEMATICS.0.9.5.4\BUILD\NATIVE\INCLUDE\GLM\DETAIL\FUNC_EXPONENTIAL_SIMD.INL
C:\USERS\HANS\DROPBOX\DOCUMENTS\VISUAL STUDIO 2015\PROJECTS\GLTUTORIAL5\PACKAGES\GLMATHEMATICS.0.9.5.4\BUILD\NATIVE\INCLUDE\GLM\SIMD\EXPONENTIAL.H
C:\USERS\HANS\DROPBOX\DOCUMENTS\VISUAL STUDIO 2015\PROJECTS\GLTUTORIAL5\PACKAGES\GLMATHEMATICS.0.9.5.4\BUILD\NATIVE\INCLUDE\GLM\DETAIL\FUNC_COMMON.HPP
C:\USERS\HANS\DROPBOX\DOCUMENTS\VISUAL STUDIO 2015\PROJECTS\GLTUTORIAL5\PACKAGES\GLMATHEMATICS.0.9.5.4\BUILD\NATIVE\INCLUDE\GLM\DETAIL\FUNC_COMMON.INL
C:\USERS\HANS\DROPBOX\DOCUMENTS\VISUAL STUDIO 2015\PROJECTS\GLTUTORIAL5\PACKAGES\GLMATHEMATICS.0.9.5.4\BUILD\NATIVE\INCLUDE\GLM\DETAIL\FUNC_COMMON_SIMD.INL
C:\USERS\HANS\DROPBOX\DOCUMENTS\VISUAL STUDIO 2015\PROJECTS\GLTUTORIAL5\PACKAGES\GLMATHEMATICS.0.9.5.4\BUILD\NATIVE\INCLUDE\GLM\SIMD\COMMON.H
C:\USERS\HANS\DROPBOX\DOCUMENTS\VISUAL STUDIO 2015\PROJECTS\GLTUTORIAL5\PACKAGES\GLMATHEMATICS.0.9.5.4\BUILD\NATIVE\INCLUDE\GLM\DETAIL\FUNC_GEOMETRIC_SIMD.INL
C:\USERS\HANS\DROPBOX\DOCUMENTS\VISUAL STUDIO 2015\PROJECTS\GLTUTORIAL5\PACKAGES\GLMATHEMATICS.0.9.5.4\BUILD\NATIVE\INCLUDE\GLM\SIMD\GEOMETRIC.H
C:\USERS\HANS\DROPBOX\DOCUMENTS\VISUAL STUDIO 2015\PROJECTS\GLTUTORIAL5\PACKAGES\GLMATHEMATICS.0.9.5.4\BUILD\NATIVE\INCLUDE\GLM\DETAIL\FUNC_MATRIX_SIMD.INL
C:\USERS\HANS\DROPBOX\DOCUMENTS\VISUAL STUDIO 2015\PROJECTS\GLTUTORIAL5\PACKAGES\GLMATHEMATICS.0.9.5.4\BUILD\NATIVE\INCLUDE\GLM\SIMD\MATRIX.H
C:\USERS\HANS\DROPBOX\DOCUMENTS\VISUAL STUDIO 2015\PROJECTS\GLTUTORIAL5\PACKAGES\GLMATHEMATICS.0.9.5.4\BUILD\NATIVE\INCLUDE\GLM\TRIGONOMETRIC.HPP
C:\USERS\HANS\DROPBOX\DOCUMENTS\VISUAL STUDIO 2015\PROJECTS\GLTUTORIAL5\PACKAGES\GLMATHEMATICS.0.9.5.4\BUILD\NATIVE\INCLUDE\GLM\DETAIL\FUNC_TRIGONOMETRIC.HPP
C:\USERS\HANS\DROPBOX\DOCUMENTS\VISUAL STUDIO 2015\PROJECTS\GLTUTORIAL5\PACKAGES\GLMATHEMATICS.0.9.5.4\BUILD\NATIVE\INCLUDE\GLM\DETAIL\FUNC_TRIGONOMETRIC.INL
C:\USERS\HANS\DROPBOX\DOCUMENTS\VISUAL STUDIO 2015\PROJECTS\GLTUTORIAL5\PACKAGES\GLMATHEMATICS.0.9.5.4\BUILD\NATIVE\INCLUDE\GLM\DETAIL\FUNC_TRIGONOMETRIC_SIMD.INL
C:\USERS\HANS\DROPBOX\DOCUMENTS\VISUAL STUDIO 2015\PROJECTS\GLTUTORIAL5\PACKAGES\GLMATHEMATICS.0.9.5.4\BUILD\NATIVE\INCLUDE\GLM\EXPONENTIAL.HPP
C:\USERS\HANS\DROPBOX\DOCUMENTS\VISUAL STUDIO 2015\PROJECTS\GLTUTORIAL5\PACKAGES\GLMATHEMATICS.0.9.5.4\BUILD\NATIVE\INCLUDE\GLM\COMMON.HPP
C:\USERS\HANS\DROPBOX\DOCUMENTS\VISUAL STUDIO 2015\PROJECTS\GLTUTORIAL5\PACKAGES\GLMATHEMATICS.0.9.5.4\BUILD\NATIVE\INCLUDE\GLM\PACKING.HPP
C:\USERS\HANS\DROPBOX\DOCUMENTS\VISUAL STUDIO 2015\PROJECTS\GLTUTORIAL5\PACKAGES\GLMATHEMATICS.0.9.5.4\BUILD\NATIVE\INCLUDE\GLM\DETAIL\FUNC_PACKING.HPP
C:\USERS\HANS\DROPBOX\DOCUMENTS\VISUAL STUDIO 2015\PROJECTS\GLTUTORIAL5\PACKAGES\GLMATHEMATICS.0.9.5.4\BUILD\NATIVE\INCLUDE\GLM\DETAIL\FUNC_PACKING.INL
C:\USERS\HANS\DROPBOX\DOCUMENTS\VISUAL STUDIO 2015\PROJECTS\GLTUTORIAL5\PACKAGES\GLMATHEMATICS.0.9.5.4\BUILD\NATIVE\INCLUDE\GLM\DETAIL\TYPE_HALF.HPP
C:\USERS\HANS\DROPBOX\DOCUMENTS\VISUAL STUDIO 2015\PROJECTS\GLTUTORIAL5\PACKAGES\GLMATHEMATICS.0.9.5.4\BUILD\NATIVE\INCLUDE\GLM\DETAIL\TYPE_HALF.INL
C:\USERS\HANS\DROPBOX\DOCUMENTS\VISUAL STUDIO 2015\PROJECTS\GLTUTORIAL5\PACKAGES\GLMATHEMATICS.0.9.5.4\BUILD\NATIVE\INCLUDE\GLM\DETAIL\FUNC_PACKING_SIMD.INL
C:\USERS\HANS\DROPBOX\DOCUMENTS\VISUAL STUDIO 2015\PROJECTS\GLTUTORIAL5\PACKAGES\GLMATHEMATICS.0.9.5.4\BUILD\NATIVE\INCLUDE\GLM\MATRIX.HPP
C:\USERS\HANS\DROPBOX\DOCUMENTS\VISUAL STUDIO 2015\PROJECTS\GLTUTORIAL5\PACKAGES\GLMATHEMATICS.0.9.5.4\BUILD\NATIVE\INCLUDE\GLM\VECTOR_RELATIONAL.HPP
C:\USERS\HANS\DROPBOX\DOCUMENTS\VISUAL STUDIO 2015\PROJECTS\GLTUTORIAL5\PACKAGES\GLMATHEMATICS.0.9.5.4\BUILD\NATIVE\INCLUDE\GLM\INTEGER.HPP
C:\USERS\HANS\DROPBOX\DOCUMENTS\VISUAL STUDIO 2015\PROJECTS\GLTUTORIAL5\PACKAGES\GLMATHEMATICS.0.9.5.4\BUILD\NATIVE\INCLUDE\GLM\DETAIL\FUNC_INTEGER.HPP
C:\USERS\HANS\DROPBOX\DOCUMENTS\VISUAL STUDIO 2015\PROJECTS\GLTUTORIAL5\PACKAGES\GLMATHEMATICS.0.9.5.4\BUILD\NATIVE\INCLUDE\GLM\DETAIL\FUNC_INTEGER.INL
C:\USERS\HANS\DROPBOX\DOCUMENTS\VISUAL STUDIO 2015\PROJECTS\GLTUTORIAL5\PACKAGES\GLMATHEMATICS.0.9.5.4\BUILD\NATIVE\INCLUDE\GLM\DETAIL\FUNC_INTEGER_SIMD.INL
C:\USERS\HANS\DROPBOX\DOCUMENTS\VISUAL STUDIO 2015\PROJECTS\GLTUTORIAL5\PACKAGES\GLMATHEMATICS.0.9.5.4\BUILD\NATIVE\INCLUDE\GLM\SIMD\INTEGER.H
C:\USERS\HANS\DROPBOX\DOCUMENTS\VISUAL STUDIO 2015\PROJECTS\GLTUTORIAL5\PACKAGES\GLMATHEMATICS.0.9.5.4\BUILD\NATIVE\INCLUDE\GLM\GTC\MATRIX_TRANSFORM.HPP
C:\USERS\HANS\DROPBOX\DOCUMENTS\VISUAL STUDIO 2015\PROJECTS\GLTUTORIAL5\PACKAGES\GLMATHEMATICS.0.9.5.4\BUILD\NATIVE\INCLUDE\GLM\GTC\CONSTANTS.HPP
C:\USERS\HANS\DROPBOX\DOCUMENTS\VISUAL STUDIO 2015\PROJECTS\GLTUTORIAL5\PACKAGES\GLMATHEMATICS.0.9.5.4\BUILD\NATIVE\INCLUDE\GLM\GTC\CONSTANTS.INL
C:\USERS\HANS\DROPBOX\DOCUMENTS\VISUAL STUDIO 2015\PROJECTS\GLTUTORIAL5\PACKAGES\GLMATHEMATICS.0.9.5.4\BUILD\NATIVE\INCLUDE\GLM\GTC\MATRIX_TRANSFORM.INL
C:\USERS\HANS\DROPBOX\DOCUMENTS\VISUAL STUDIO 2015\PROJECTS\GLTUTORIAL5\PACKAGES\GLMATHEMATICS.0.9.5.4\BUILD\NATIVE\INCLUDE\GLM\GTC\TYPE_PTR.HPP
C:\USERS\HANS\DROPBOX\DOCUMENTS\VISUAL STUDIO 2015\PROJECTS\GLTUTORIAL5\PACKAGES\GLMATHEMATICS.0.9.5.4\BUILD\NATIVE\INCLUDE\GLM\GTC\QUATERNION.HPP
C:\USERS\HANS\DROPBOX\DOCUMENTS\VISUAL STUDIO 2015\PROJECTS\GLTUTORIAL5\PACKAGES\GLMATHEMATICS.0.9.5.4\BUILD\NATIVE\INCLUDE\GLM\GTC\QUATERNION.INL
C:\USERS\HANS\DROPBOX\DOCUMENTS\VISUAL STUDIO 2015\PROJECTS\GLTUTORIAL5\PACKAGES\GLMATHEMATICS.0.9.5.4\BUILD\NATIVE\INCLUDE\GLM\GTC\QUATERNION_SIMD.INL
C:\PROGRAM FILES (X86)\MICROSOFT VISUAL STUDIO 14.0\VC\INCLUDE\CSTRING
C:\PROGRAM FILES (X86)\WINDOWS KITS\10\INCLUDE\10.0.10240.0\UCRT\STRING.H
C:\PROGRAM FILES (X86)\WINDOWS KITS\10\INCLUDE\10.0.10240.0\UCRT\CORECRT_MEMORY.H
C:\USERS\HANS\DROPBOX\DOCUMENTS\VISUAL STUDIO 2015\PROJECTS\GLTUTORIAL5\PACKAGES\GLMATHEMATICS.0.9.5.4\BUILD\NATIVE\INCLUDE\GLM\GTC\TYPE_PTR.INL
C:\PROGRAM FILES (X86)\MICROSOFT VISUAL STUDIO 14.0\VC\INCLUDE\CSTDIO
C:\PROGRAM FILES (X86)\WINDOWS KITS\10\INCLUDE\10.0.10240.0\UCRT\STDIO.H
C:\USERS\HANS\DROPBOX\DOCUMENTS\VISUAL STUDIO 2015\PROJECTS\GLTUTORIAL5\GLTUTORIAL5\SHADER.H
C:\USERS\HANS\DROPBOX\DOCUMENTS\VISUAL STUDIO 2015\PROJECTS\GLTUTORIAL5\GLTUTORIAL5\TEXTURE.H
C:\USERS\HANS\DROPBOX\DOCUMENTS\VISUAL STUDIO 2015\PROJECTS\GLTUTORIAL5\PACKAGES\GLMATHEMATICS.0.9.5.4\BUILD\NATIVE\INCLUDE\GLM\GTC\MATRIX_INVERSE.HPP
C:\USERS\HANS\DROPBOX\DOCUMENTS\VISUAL STUDIO 2015\PROJECTS\GLTUTORIAL5\PACKAGES\GLMATHEMATICS.0.9.5.4\BUILD\NATIVE\INCLUDE\GLM\GTC\MATRIX_INVERSE.INL
C:\PROGRAM FILES (X86)\MICROSOFT VISUAL STUDIO 14.0\VC\BIN\MSPDBSRV.EXE
C:\USERS\HANS\DROPBOX\DOCUMENTS\VISUAL STUDIO 2015\PROJECTS\GLTUTORIAL5\PACKAGES\GLMATHEMATICS.0.9.5.4\BUILD\NATIVE\INCLUDE\GLM\GTX\TRANSFORM.HPP
C:\USERS\HANS\DROPBOX\DOCUMENTS\VISUAL STUDIO 2015\PROJECTS\GLTUTORIAL5\PACKAGES\GLMATHEMATICS.0.9.5.4\BUILD\NATIVE\INCLUDE\GLM\GTX\TRANSFORM.INL
