^C:\USERS\HANS\DROPBOX\DOCUMENTS\VISUAL STUDIO 2015\PROJECTS\GLTUTORIAL5\GLTUTORIAL5\DEBUG\MAIN.OBJ|C:\USERS\HANS\DROPBOX\DOCUMENTS\VISUAL STUDIO 2015\PROJECTS\GLTUTORIAL5\GLTUTORIAL5\DEBUG\SHADER.OBJ|C:\USERS\HANS\DROPBOX\DOCUMENTS\VISUAL STUDIO 2015\PROJECTS\GLTUTORIAL5\GLTUTORIAL5\DEBUG\TEXTURE.OBJ
C:\USERS\HANS\DROPBOX\DOCUMENTS\VISUAL STUDIO 2015\PROJECTS\GLTUTORIAL5\DEBUG\GLTUTORIAL5.ILK
C:\USERS\HANS\DROPBOX\DOCUMENTS\VISUAL STUDIO 2015\PROJECTS\GLTUTORIAL5\DEBUG\GLTUTORIAL5.EXE
C:\USERS\HANS\DROPBOX\DOCUMENTS\VISUAL STUDIO 2015\PROJECTS\GLTUTORIAL5\DEBUG\GLTUTORIAL5.PDB
