^C:\USERS\HANS\DROPBOX\DOCUMENTS\VISUAL STUDIO 2015\PROJECTS\GLTUTORIAL4\GLTUTORIAL4\MAIN.CPP|C:\USERS\HANS\DROPBOX\DOCUMENTS\VISUAL STUDIO 2015\PROJECTS\GLTUTORIAL4\GLTUTORIAL4\SHADER.CPP|C:\USERS\HANS\DROPBOX\DOCUMENTS\VISUAL STUDIO 2015\PROJECTS\GLTUTORIAL4\GLTUTORIAL4\TEXTURE.CPP
C:\USERS\HANS\DROPBOX\DOCUMENTS\VISUAL STUDIO 2015\PROJECTS\GLTUTORIAL4\GLTUTORIAL4\DEBUG\VC140.PDB
C:\USERS\HANS\DROPBOX\DOCUMENTS\VISUAL STUDIO 2015\PROJECTS\GLTUTORIAL4\GLTUTORIAL4\DEBUG\VC140.IDB
C:\USERS\HANS\DROPBOX\DOCUMENTS\VISUAL STUDIO 2015\PROJECTS\GLTUTORIAL4\GLTUTORIAL4\DEBUG\SHADER.OBJ
C:\USERS\HANS\DROPBOX\DOCUMENTS\VISUAL STUDIO 2015\PROJECTS\GLTUTORIAL4\GLTUTORIAL4\DEBUG\TEXTURE.OBJ
^C:\USERS\HANS\DROPBOX\DOCUMENTS\VISUAL STUDIO 2015\PROJECTS\GLTUTORIAL4\GLTUTORIAL4\MAIN.CPP
C:\USERS\HANS\DROPBOX\DOCUMENTS\VISUAL STUDIO 2015\PROJECTS\GLTUTORIAL4\GLTUTORIAL4\DEBUG\VC140.PDB
C:\USERS\HANS\DROPBOX\DOCUMENTS\VISUAL STUDIO 2015\PROJECTS\GLTUTORIAL4\GLTUTORIAL4\DEBUG\VC140.IDB
C:\USERS\HANS\DROPBOX\DOCUMENTS\VISUAL STUDIO 2015\PROJECTS\GLTUTORIAL4\GLTUTORIAL4\DEBUG\MAIN.OBJ
^C:\USERS\HANS\DROPBOX\DOCUMENTS\VISUAL STUDIO 2015\PROJECTS\GLTUTORIAL4\GLTUTORIAL4\SHADER.CPP
C:\USERS\HANS\DROPBOX\DOCUMENTS\VISUAL STUDIO 2015\PROJECTS\GLTUTORIAL4\GLTUTORIAL4\DEBUG\VC140.PDB
^C:\USERS\HANS\DROPBOX\DOCUMENTS\VISUAL STUDIO 2015\PROJECTS\GLTUTORIAL4\GLTUTORIAL4\TEXTURE.CPP
C:\USERS\HANS\DROPBOX\DOCUMENTS\VISUAL STUDIO 2015\PROJECTS\GLTUTORIAL4\GLTUTORIAL4\DEBUG\VC140.PDB
